%!PS-Adobe-3.0 EPSF-3.0
%%Creator: (MATLAB, The Mathworks, Inc. Version 9.3.0.713579 \(R2017b\). Operating System: Linux)
%%Title: ../latex/img/ii-a.eps
%%CreationDate: 2018-02-12T17:50:36
%%Pages: (atend)
%%BoundingBox:    16     4   387   296
%%LanguageLevel: 3
%%EndComments
%%BeginProlog
%%BeginResource: procset (Apache XML Graphics Std ProcSet) 1.2 0
%%Version: 1.2 0
%%Copyright: (Copyright 2001-2003,2010 The Apache Software Foundation. License terms: http://www.apache.org/licenses/LICENSE-2.0)
/bd{bind def}bind def
/ld{load def}bd
/GR/grestore ld
/GS/gsave ld
/RM/rmoveto ld
/C/curveto ld
/t/show ld
/L/lineto ld
/ML/setmiterlimit ld
/CT/concat ld
/f/fill ld
/N/newpath ld
/S/stroke ld
/CC/setcmykcolor ld
/A/ashow ld
/cp/closepath ld
/RC/setrgbcolor ld
/LJ/setlinejoin ld
/GC/setgray ld
/LW/setlinewidth ld
/M/moveto ld
/re {4 2 roll M
1 index 0 rlineto
0 exch rlineto
neg 0 rlineto
cp } bd
/_ctm matrix def
/_tm matrix def
/BT { _ctm currentmatrix pop matrix _tm copy pop 0 0 moveto } bd
/ET { _ctm setmatrix } bd
/iTm { _ctm setmatrix _tm concat } bd
/Tm { _tm astore pop iTm 0 0 moveto } bd
/ux 0.0 def
/uy 0.0 def
/F {
  /Tp exch def
  /Tf exch def
  Tf findfont Tp scalefont setfont
  /cf Tf def  /cs Tp def
} bd
/ULS {currentpoint /uy exch def /ux exch def} bd
/ULE {
  /Tcx currentpoint pop def
  gsave
  newpath
  cf findfont cs scalefont dup
  /FontMatrix get 0 get /Ts exch def /FontInfo get dup
  /UnderlinePosition get Ts mul /To exch def
  /UnderlineThickness get Ts mul /Tt exch def
  ux uy To add moveto  Tcx uy To add lineto
  Tt setlinewidth stroke
  grestore
} bd
/OLE {
  /Tcx currentpoint pop def
  gsave
  newpath
  cf findfont cs scalefont dup
  /FontMatrix get 0 get /Ts exch def /FontInfo get dup
  /UnderlinePosition get Ts mul /To exch def
  /UnderlineThickness get Ts mul /Tt exch def
  ux uy To add cs add moveto Tcx uy To add cs add lineto
  Tt setlinewidth stroke
  grestore
} bd
/SOE {
  /Tcx currentpoint pop def
  gsave
  newpath
  cf findfont cs scalefont dup
  /FontMatrix get 0 get /Ts exch def /FontInfo get dup
  /UnderlinePosition get Ts mul /To exch def
  /UnderlineThickness get Ts mul /Tt exch def
  ux uy To add cs 10 mul 26 idiv add moveto Tcx uy To add cs 10 mul 26 idiv add lineto
  Tt setlinewidth stroke
  grestore
} bd
/QT {
/Y22 exch store
/X22 exch store
/Y21 exch store
/X21 exch store
currentpoint
/Y21 load 2 mul add 3 div exch
/X21 load 2 mul add 3 div exch
/X21 load 2 mul /X22 load add 3 div
/Y21 load 2 mul /Y22 load add 3 div
/X22 load /Y22 load curveto
} bd
/SSPD {
dup length /d exch dict def
{
/v exch def
/k exch def
currentpagedevice k known {
/cpdv currentpagedevice k get def
v cpdv ne {
/upd false def
/nullv v type /nulltype eq def
/nullcpdv cpdv type /nulltype eq def
nullv nullcpdv or
{
/upd true def
} {
/sametype v type cpdv type eq def
sametype {
v type /arraytype eq {
/vlen v length def
/cpdvlen cpdv length def
vlen cpdvlen eq {
0 1 vlen 1 sub {
/i exch def
/obj v i get def
/cpdobj cpdv i get def
obj cpdobj ne {
/upd true def
exit
} if
} for
} {
/upd true def
} ifelse
} {
v type /dicttype eq {
v {
/dv exch def
/dk exch def
/cpddv cpdv dk get def
dv cpddv ne {
/upd true def
exit
} if
} forall
} {
/upd true def
} ifelse
} ifelse
} if
} ifelse
upd true eq {
d k v put
} if
} if
} if
} forall
d length 0 gt {
d setpagedevice
} if
} bd
/RE { % /NewFontName [NewEncodingArray] /FontName RE -
  findfont dup length dict begin
  {
    1 index /FID ne
    {def} {pop pop} ifelse
  } forall
  /Encoding exch def
  /FontName 1 index def
  currentdict definefont pop
  end
} bind def
%%EndResource
%%BeginResource: procset (Apache XML Graphics EPS ProcSet) 1.0 0
%%Version: 1.0 0
%%Copyright: (Copyright 2002-2003 The Apache Software Foundation. License terms: http://www.apache.org/licenses/LICENSE-2.0)
/BeginEPSF { %def
/b4_Inc_state save def         % Save state for cleanup
/dict_count countdictstack def % Count objects on dict stack
/op_count count 1 sub def      % Count objects on operand stack
userdict begin                 % Push userdict on dict stack
/showpage { } def              % Redefine showpage, { } = null proc
0 setgray 0 setlinecap         % Prepare graphics state
1 setlinewidth 0 setlinejoin
10 setmiterlimit [ ] 0 setdash newpath
/languagelevel where           % If level not equal to 1 then
{pop languagelevel             % set strokeadjust and
1 ne                           % overprint to their defaults.
{false setstrokeadjust false setoverprint
} if
} if
} bd
/EndEPSF { %def
count op_count sub {pop} repeat            % Clean up stacks
countdictstack dict_count sub {end} repeat
b4_Inc_state restore
} bd
%%EndResource
%FOPBeginFontDict
%%IncludeResource: font Courier-Oblique
%%IncludeResource: font Courier-BoldOblique
%%IncludeResource: font Courier-Bold
%%IncludeResource: font ZapfDingbats
%%IncludeResource: font Symbol
%%IncludeResource: font Helvetica
%%IncludeResource: font Helvetica-Oblique
%%IncludeResource: font Helvetica-Bold
%%IncludeResource: font Helvetica-BoldOblique
%%IncludeResource: font Times-Roman
%%IncludeResource: font Times-Italic
%%IncludeResource: font Times-Bold
%%IncludeResource: font Times-BoldItalic
%%IncludeResource: font Courier
%FOPEndFontDict
%%BeginResource: encoding WinAnsiEncoding
/WinAnsiEncoding [
/.notdef /.notdef /.notdef /.notdef /.notdef
/.notdef /.notdef /.notdef /.notdef /.notdef
/.notdef /.notdef /.notdef /.notdef /.notdef
/.notdef /.notdef /.notdef /.notdef /.notdef
/.notdef /.notdef /.notdef /.notdef /.notdef
/.notdef /.notdef /.notdef /.notdef /.notdef
/.notdef /.notdef /space /exclam /quotedbl
/numbersign /dollar /percent /ampersand /quotesingle
/parenleft /parenright /asterisk /plus /comma
/hyphen /period /slash /zero /one
/two /three /four /five /six
/seven /eight /nine /colon /semicolon
/less /equal /greater /question /at
/A /B /C /D /E
/F /G /H /I /J
/K /L /M /N /O
/P /Q /R /S /T
/U /V /W /X /Y
/Z /bracketleft /backslash /bracketright /asciicircum
/underscore /quoteleft /a /b /c
/d /e /f /g /h
/i /j /k /l /m
/n /o /p /q /r
/s /t /u /v /w
/x /y /z /braceleft /bar
/braceright /asciitilde /bullet /Euro /bullet
/quotesinglbase /florin /quotedblbase /ellipsis /dagger
/daggerdbl /circumflex /perthousand /Scaron /guilsinglleft
/OE /bullet /Zcaron /bullet /bullet
/quoteleft /quoteright /quotedblleft /quotedblright /bullet
/endash /emdash /asciitilde /trademark /scaron
/guilsinglright /oe /bullet /zcaron /Ydieresis
/space /exclamdown /cent /sterling /currency
/yen /brokenbar /section /dieresis /copyright
/ordfeminine /guillemotleft /logicalnot /sfthyphen /registered
/macron /degree /plusminus /twosuperior /threesuperior
/acute /mu /paragraph /middot /cedilla
/onesuperior /ordmasculine /guillemotright /onequarter /onehalf
/threequarters /questiondown /Agrave /Aacute /Acircumflex
/Atilde /Adieresis /Aring /AE /Ccedilla
/Egrave /Eacute /Ecircumflex /Edieresis /Igrave
/Iacute /Icircumflex /Idieresis /Eth /Ntilde
/Ograve /Oacute /Ocircumflex /Otilde /Odieresis
/multiply /Oslash /Ugrave /Uacute /Ucircumflex
/Udieresis /Yacute /Thorn /germandbls /agrave
/aacute /acircumflex /atilde /adieresis /aring
/ae /ccedilla /egrave /eacute /ecircumflex
/edieresis /igrave /iacute /icircumflex /idieresis
/eth /ntilde /ograve /oacute /ocircumflex
/otilde /odieresis /divide /oslash /ugrave
/uacute /ucircumflex /udieresis /yacute /thorn
/ydieresis
] def
%%EndResource
%FOPBeginFontReencode
/Courier-Oblique findfont
dup length dict begin
  {1 index /FID ne {def} {pop pop} ifelse} forall
  /Encoding WinAnsiEncoding def
  currentdict
end
/Courier-Oblique exch definefont pop
/Courier-BoldOblique findfont
dup length dict begin
  {1 index /FID ne {def} {pop pop} ifelse} forall
  /Encoding WinAnsiEncoding def
  currentdict
end
/Courier-BoldOblique exch definefont pop
/Courier-Bold findfont
dup length dict begin
  {1 index /FID ne {def} {pop pop} ifelse} forall
  /Encoding WinAnsiEncoding def
  currentdict
end
/Courier-Bold exch definefont pop
/Helvetica findfont
dup length dict begin
  {1 index /FID ne {def} {pop pop} ifelse} forall
  /Encoding WinAnsiEncoding def
  currentdict
end
/Helvetica exch definefont pop
/Helvetica-Oblique findfont
dup length dict begin
  {1 index /FID ne {def} {pop pop} ifelse} forall
  /Encoding WinAnsiEncoding def
  currentdict
end
/Helvetica-Oblique exch definefont pop
/Helvetica-Bold findfont
dup length dict begin
  {1 index /FID ne {def} {pop pop} ifelse} forall
  /Encoding WinAnsiEncoding def
  currentdict
end
/Helvetica-Bold exch definefont pop
/Helvetica-BoldOblique findfont
dup length dict begin
  {1 index /FID ne {def} {pop pop} ifelse} forall
  /Encoding WinAnsiEncoding def
  currentdict
end
/Helvetica-BoldOblique exch definefont pop
/Times-Roman findfont
dup length dict begin
  {1 index /FID ne {def} {pop pop} ifelse} forall
  /Encoding WinAnsiEncoding def
  currentdict
end
/Times-Roman exch definefont pop
/Times-Italic findfont
dup length dict begin
  {1 index /FID ne {def} {pop pop} ifelse} forall
  /Encoding WinAnsiEncoding def
  currentdict
end
/Times-Italic exch definefont pop
/Times-Bold findfont
dup length dict begin
  {1 index /FID ne {def} {pop pop} ifelse} forall
  /Encoding WinAnsiEncoding def
  currentdict
end
/Times-Bold exch definefont pop
/Times-BoldItalic findfont
dup length dict begin
  {1 index /FID ne {def} {pop pop} ifelse} forall
  /Encoding WinAnsiEncoding def
  currentdict
end
/Times-BoldItalic exch definefont pop
/Courier findfont
dup length dict begin
  {1 index /FID ne {def} {pop pop} ifelse} forall
  /Encoding WinAnsiEncoding def
  currentdict
end
/Courier exch definefont pop
%FOPEndFontReencode
%%EndProlog
%%Page: 1 1
%%PageBoundingBox: 0 0 420 315
%%BeginPageSetup
[1 0 0 -1 0 315] CT
%%EndPageSetup
GS
[0.75 0 0 0.75 0 0] CT
1 GC
N
0 0 560 420 re
f
GR
GS
[0.75 0 0 0.75 0 0] CT
1 GC
N
0 0 560 420 re
f
GR
GS
[0.75 0 0 0.75 0 0] CT
1 GC
N
73 374 M
507 374 L
507 31 L
73 31 L
cp
f
GR
GS
[0.75 0 0 0.75 0 0] CT
0.149 GC
2 setlinecap
1 LJ
0.667 LW
N
73 374 M
507 374 L
S
GR
GS
[0.75 0 0 0.75 0 0] CT
0.149 GC
2 setlinecap
1 LJ
0.667 LW
N
73 31 M
507 31 L
S
GR
GS
[0.75 0 0 0.75 0 0] CT
0.149 GC
2 setlinecap
1 LJ
0.667 LW
N
73 374 M
73 369.66 L
S
GR
GS
[0.75 0 0 0.75 0 0] CT
0.149 GC
2 setlinecap
1 LJ
0.667 LW
N
217.667 374 M
217.667 369.66 L
S
GR
GS
[0.75 0 0 0.75 0 0] CT
0.149 GC
2 setlinecap
1 LJ
0.667 LW
N
362.333 374 M
362.333 369.66 L
S
GR
GS
[0.75 0 0 0.75 0 0] CT
0.149 GC
2 setlinecap
1 LJ
0.667 LW
N
507 374 M
507 369.66 L
S
GR
GS
[0.75 0 0 0.75 0 0] CT
0.149 GC
2 setlinecap
1 LJ
0.667 LW
N
73 31 M
73 35.34 L
S
GR
GS
[0.75 0 0 0.75 0 0] CT
0.149 GC
2 setlinecap
1 LJ
0.667 LW
N
217.667 31 M
217.667 35.34 L
S
GR
GS
[0.75 0 0 0.75 0 0] CT
0.149 GC
2 setlinecap
1 LJ
0.667 LW
N
362.333 31 M
362.333 35.34 L
S
GR
GS
[0.75 0 0 0.75 0 0] CT
0.149 GC
2 setlinecap
1 LJ
0.667 LW
N
507 31 M
507 35.34 L
S
GR
GS
[0.75 0 0 0.75 54.75 284.50001] CT
0.149 GC
/Helvetica 13.333 F
GS
[1 0 0 1 0 0] CT
-4.5 13 moveto 
1 -1 scale
(0) t 
GR
GR
GS
[0.75 0 0 0.75 163.25 284.50001] CT
0.149 GC
/Helvetica 13.333 F
GS
[1 0 0 1 0 0] CT
-11 13 moveto 
1 -1 scale
(0.5) t 
GR
GR
GS
[0.75 0 0 0.75 271.75001 284.50001] CT
0.149 GC
/Helvetica 13.333 F
GS
[1 0 0 1 0 0] CT
-4.5 13 moveto 
1 -1 scale
(1) t 
GR
GR
GS
[0.75 0 0 0.75 380.25 284.50001] CT
0.149 GC
/Helvetica 13.333 F
GS
[1 0 0 1 0 0] CT
-11 13 moveto 
1 -1 scale
(1.5) t 
GR
GR
GS
[0.75 0 0 0.75 217.50016 298.24999] CT
0.149 GC
/Helvetica 14.667 F
GS
[1 0 0 1 0 0] CT
-15 14 moveto 
1 -1 scale
(t \(s\)) t 
GR
GR
GS
[0.75 0 0 0.75 0 0] CT
0.149 GC
2 setlinecap
1 LJ
0.667 LW
N
73 374 M
73 31 L
S
GR
GS
[0.75 0 0 0.75 0 0] CT
0.149 GC
2 setlinecap
1 LJ
0.667 LW
N
507 374 M
507 31 L
S
GR
GS
[0.75 0 0 0.75 0 0] CT
0.149 GC
2 setlinecap
1 LJ
0.667 LW
N
73 374 M
77.34 374 L
S
GR
GS
[0.75 0 0 0.75 0 0] CT
0.149 GC
2 setlinecap
1 LJ
0.667 LW
N
73 325 M
77.34 325 L
S
GR
GS
[0.75 0 0 0.75 0 0] CT
0.149 GC
2 setlinecap
1 LJ
0.667 LW
N
73 276 M
77.34 276 L
S
GR
GS
[0.75 0 0 0.75 0 0] CT
0.149 GC
2 setlinecap
1 LJ
0.667 LW
N
73 227 M
77.34 227 L
S
GR
GS
[0.75 0 0 0.75 0 0] CT
0.149 GC
2 setlinecap
1 LJ
0.667 LW
N
73 178 M
77.34 178 L
S
GR
GS
[0.75 0 0 0.75 0 0] CT
0.149 GC
2 setlinecap
1 LJ
0.667 LW
N
73 129 M
77.34 129 L
S
GR
GS
[0.75 0 0 0.75 0 0] CT
0.149 GC
2 setlinecap
1 LJ
0.667 LW
N
73 80 M
77.34 80 L
S
GR
GS
[0.75 0 0 0.75 0 0] CT
0.149 GC
2 setlinecap
1 LJ
0.667 LW
N
73 31 M
77.34 31 L
S
GR
GS
[0.75 0 0 0.75 0 0] CT
0.149 GC
2 setlinecap
1 LJ
0.667 LW
N
507 374 M
502.66 374 L
S
GR
GS
[0.75 0 0 0.75 0 0] CT
0.149 GC
2 setlinecap
1 LJ
0.667 LW
N
507 325 M
502.66 325 L
S
GR
GS
[0.75 0 0 0.75 0 0] CT
0.149 GC
2 setlinecap
1 LJ
0.667 LW
N
507 276 M
502.66 276 L
S
GR
GS
[0.75 0 0 0.75 0 0] CT
0.149 GC
2 setlinecap
1 LJ
0.667 LW
N
507 227 M
502.66 227 L
S
GR
GS
[0.75 0 0 0.75 0 0] CT
0.149 GC
2 setlinecap
1 LJ
0.667 LW
N
507 178 M
502.66 178 L
S
GR
GS
[0.75 0 0 0.75 0 0] CT
0.149 GC
2 setlinecap
1 LJ
0.667 LW
N
507 129 M
502.66 129 L
S
GR
GS
[0.75 0 0 0.75 0 0] CT
0.149 GC
2 setlinecap
1 LJ
0.667 LW
N
507 80 M
502.66 80 L
S
GR
GS
[0.75 0 0 0.75 0 0] CT
0.149 GC
2 setlinecap
1 LJ
0.667 LW
N
507 31 M
502.66 31 L
S
GR
GS
[0.75 0 0 0.75 50.75 280.5] CT
0.149 GC
/Helvetica 13.333 F
GS
[1 0 0 1 0 0] CT
-9 4.5 moveto 
1 -1 scale
(0) t 
GR
GR
GS
[0.75 0 0 0.75 50.75 243.75] CT
0.149 GC
/Helvetica 13.333 F
GS
[1 0 0 1 0 0] CT
-17 4.5 moveto 
1 -1 scale
(20) t 
GR
GR
GS
[0.75 0 0 0.75 50.75 207] CT
0.149 GC
/Helvetica 13.333 F
GS
[1 0 0 1 0 0] CT
-17 4.5 moveto 
1 -1 scale
(40) t 
GR
GR
GS
[0.75 0 0 0.75 50.75 170.25] CT
0.149 GC
/Helvetica 13.333 F
GS
[1 0 0 1 0 0] CT
-17 4.5 moveto 
1 -1 scale
(60) t 
GR
GR
GS
[0.75 0 0 0.75 50.75 133.5] CT
0.149 GC
/Helvetica 13.333 F
GS
[1 0 0 1 0 0] CT
-17 4.5 moveto 
1 -1 scale
(80) t 
GR
GR
GS
[0.75 0 0 0.75 50.75 96.75] CT
0.149 GC
/Helvetica 13.333 F
GS
[1 0 0 1 0 0] CT
-26 4.5 moveto 
1 -1 scale
(100) t 
GR
GR
GS
[0.75 0 0 0.75 50.75 60] CT
0.149 GC
/Helvetica 13.333 F
GS
[1 0 0 1 0 0] CT
-26 4.5 moveto 
1 -1 scale
(120) t 
GR
GR
GS
[0.75 0 0 0.75 50.75 23.25] CT
0.149 GC
/Helvetica 13.333 F
GS
[1 0 0 1 0 0] CT
-26 4.5 moveto 
1 -1 scale
(140) t 
GR
GR
GS
[0 -0.75 0.75 0 28.25 151.87487] CT
0.149 GC
/Helvetica 14.667 F
GS
[1 0 0 1 0 0] CT
-26.5 -4 moveto 
1 -1 scale
(E \(deg\)) t 
GR
GR
GS
[0.75 0 0 0.75 0 0] CT
1 0 1 RC
1 LJ
2.667 LW
N
73 374 M
73 374 L
73 374 L
73 374 L
73 374 L
73 373.999 L
73 373.998 L
73.001 373.998 L
73.001 373.997 L
73.001 373.994 L
73.002 373.991 L
73.003 373.988 L
73.003 373.985 L
73.007 373.969 L
73.01 373.954 L
73.014 373.939 L
73.017 373.923 L
73.034 373.846 L
73.052 373.769 L
73.069 373.693 L
73.086 373.616 L
73.173 373.232 L
73.259 372.848 L
73.345 372.465 L
73.431 372.083 L
73.863 370.178 L
74.295 368.285 L
74.726 366.403 L
75.158 364.534 L
76.243 359.884 L
77.328 355.308 L
78.413 350.803 L
79.498 346.369 L
80.583 342.004 L
81.668 337.708 L
82.753 333.479 L
83.838 329.316 L
84.923 325.219 L
86.008 321.185 L
87.093 317.215 L
88.178 313.307 L
89.263 309.46 L
90.348 305.674 L
91.433 301.947 L
92.518 298.278 L
93.603 294.667 L
94.688 291.112 L
95.773 287.613 L
96.858 284.169 L
97.943 280.778 L
99.028 277.441 L
100.113 274.156 L
101.198 270.923 L
102.283 267.74 L
103.368 264.607 L
104.453 261.523 L
105.538 258.488 L
106.623 255.5 L
107.708 252.558 L
108.793 249.663 L
109.878 246.813 L
110.963 244.008 L
112.048 241.247 L
113.133 238.529 L
114.218 235.854 L
115.303 233.221 L
116.388 230.628 L
117.473 228.077 L
118.558 225.565 L
119.643 223.093 L
120.728 220.659 L
121.813 218.264 L
122.898 215.906 L
123.983 213.585 L
125.068 211.301 L
126.153 209.052 L
127.238 206.838 L
128.323 204.659 L
129.408 202.515 L
130.493 200.404 L
131.578 198.325 L
132.663 196.28 L
133.748 194.266 L
134.833 192.284 L
135.918 190.334 L
137.003 188.413 L
138.088 186.523 L
139.173 184.662 L
140.258 182.831 L
141.343 181.028 L
142.428 179.254 L
143.513 177.507 L
144.598 175.787 L
145.683 174.095 L
146.768 172.429 L
147.853 170.789 L
148.938 169.175 L
150.023 167.586 L
151.108 166.022 L
152.193 164.483 L
153.278 162.967 L
154.363 161.476 L
155.448 160.007 L
156.533 158.562 L
157.618 157.14 L
158.703 155.739 L
159.788 154.361 L
160.873 153.004 L
161.958 151.668 L
163.043 150.354 L
164.128 149.06 L
165.213 147.786 L
166.298 146.532 L
167.383 145.298 L
168.468 144.083 L
169.553 142.887 L
170.638 141.71 L
171.723 140.552 L
172.808 139.411 L
173.893 138.289 L
174.978 137.184 L
176.063 136.096 L
177.148 135.025 L
178.233 133.971 L
179.318 132.934 L
180.403 131.913 L
181.488 130.908 L
182.573 129.918 L
183.658 128.944 L
184.743 127.986 L
185.828 127.042 L
186.913 126.113 L
187.998 125.199 L
189.083 124.299 L
190.168 123.413 L
191.253 122.541 L
192.338 121.683 L
193.423 120.838 L
194.508 120.006 L
195.593 119.188 L
196.678 118.382 L
197.763 117.589 L
198.848 116.808 L
199.933 116.039 L
201.018 115.283 L
202.103 114.538 L
203.188 113.805 L
204.273 113.084 L
205.358 112.374 L
206.443 111.675 L
207.528 110.987 L
208.613 110.309 L
209.698 109.643 L
210.783 108.986 L
211.868 108.34 L
212.953 107.704 L
214.038 107.079 L
215.123 106.462 L
216.208 105.856 L
217.293 105.259 L
218.378 104.671 L
219.463 104.093 L
220.548 103.524 L
221.633 102.963 L
222.718 102.412 L
223.803 101.869 L
224.888 101.334 L
225.973 100.808 L
227.058 100.29 L
228.143 99.78 L
229.228 99.279 L
230.313 98.785 L
231.398 98.299 L
232.483 97.82 L
233.568 97.349 L
234.653 96.885 L
235.738 96.429 L
236.823 95.98 L
237.908 95.537 L
238.993 95.102 L
240.078 94.674 L
241.163 94.252 L
242.248 93.837 L
243.333 93.428 L
244.418 93.026 L
245.503 92.63 L
246.588 92.24 L
247.673 91.856 L
248.758 91.479 L
249.843 91.107 L
250.928 90.741 L
252.013 90.381 L
253.098 90.026 L
254.183 89.677 L
255.268 89.334 L
256.353 88.996 L
257.438 88.663 L
258.523 88.335 L
259.608 88.013 L
260.693 87.696 L
261.778 87.383 L
262.863 87.075 L
263.948 86.773 L
265.033 86.475 L
266.118 86.181 L
267.203 85.893 L
268.288 85.608 L
269.373 85.329 L
270.458 85.053 L
271.543 84.782 L
272.628 84.515 L
273.713 84.253 L
274.798 83.994 L
275.883 83.74 L
276.968 83.489 L
278.053 83.243 L
279.138 83 L
280.223 82.761 L
281.308 82.526 L
282.393 82.295 L
283.478 82.067 L
284.563 81.842 L
285.648 81.622 L
286.733 81.404 L
287.818 81.19 L
288.903 80.98 L
289.988 80.773 L
291.073 80.569 L
292.158 80.368 L
293.243 80.17 L
294.328 79.976 L
295.413 79.784 L
296.498 79.596 L
297.583 79.41 L
298.668 79.227 L
299.753 79.048 L
300.838 78.871 L
301.923 78.696 L
303.008 78.525 L
304.093 78.356 L
305.178 78.19 L
306.263 78.026 L
307.348 77.865 L
308.433 77.707 L
309.518 77.551 L
310.603 77.397 L
311.688 77.246 L
312.773 77.098 L
313.858 76.951 L
314.943 76.807 L
316.028 76.665 L
317.113 76.525 L
318.198 76.388 L
319.283 76.253 L
320.368 76.119 L
321.453 75.988 L
322.538 75.859 L
323.623 75.732 L
324.708 75.607 L
325.793 75.484 L
326.878 75.363 L
327.963 75.244 L
329.048 75.126 L
330.133 75.011 L
331.218 74.897 L
332.303 74.785 L
333.388 74.675 L
334.473 74.566 L
335.558 74.46 L
336.643 74.354 L
337.728 74.251 L
338.813 74.149 L
339.898 74.049 L
340.983 73.95 L
342.068 73.853 L
343.153 73.757 L
344.238 73.663 L
345.323 73.571 L
346.408 73.48 L
347.493 73.39 L
348.578 73.301 L
349.663 73.214 L
350.748 73.129 L
351.833 73.045 L
352.918 72.962 L
354.003 72.88 L
355.088 72.8 L
356.173 72.721 L
357.258 72.643 L
358.343 72.566 L
359.428 72.491 L
360.513 72.416 L
361.598 72.343 L
362.683 72.271 L
363.768 72.2 L
364.853 72.131 L
365.938 72.062 L
367.023 71.995 L
368.108 71.928 L
369.193 71.863 L
370.278 71.798 L
371.363 71.735 L
372.448 71.672 L
373.533 71.611 L
374.618 71.55 L
375.703 71.491 L
376.788 71.432 L
377.873 71.375 L
378.958 71.318 L
380.043 71.262 L
381.128 71.207 L
382.213 71.153 L
383.298 71.099 L
384.383 71.047 L
385.468 70.995 L
386.553 70.944 L
387.638 70.894 L
388.723 70.845 L
389.808 70.797 L
390.893 70.749 L
391.978 70.702 L
393.063 70.656 L
394.148 70.61 L
395.233 70.565 L
396.318 70.521 L
397.403 70.478 L
398.488 70.435 L
399.573 70.393 L
400.658 70.352 L
401.743 70.311 L
402.828 70.271 L
403.913 70.231 L
404.998 70.192 L
406.083 70.154 L
407.168 70.117 L
408.253 70.079 L
409.338 70.043 L
410.423 70.007 L
411.508 69.972 L
412.593 69.937 L
413.678 69.903 L
414.763 69.869 L
415.848 69.836 L
416.933 69.803 L
418.018 69.771 L
419.103 69.739 L
420.188 69.708 L
421.273 69.677 L
422.358 69.647 L
423.443 69.617 L
424.528 69.588 L
425.613 69.559 L
426.698 69.531 L
427.783 69.503 L
428.868 69.476 L
429.953 69.449 L
431.038 69.422 L
432.123 69.396 L
433.208 69.37 L
434.293 69.345 L
435.378 69.32 L
436.463 69.295 L
437.548 69.271 L
438.633 69.247 L
439.718 69.224 L
440.803 69.201 L
441.888 69.178 L
442.973 69.155 L
444.058 69.133 L
445.143 69.112 L
446.228 69.09 L
447.313 69.069 L
448.398 69.049 L
449.483 69.028 L
450.568 69.008 L
451.653 68.989 L
452.738 68.969 L
453.823 68.95 L
454.908 68.931 L
455.993 68.913 L
457.078 68.895 L
458.163 68.877 L
459.248 68.859 L
460.333 68.842 L
461.418 68.825 L
462.503 68.808 L
463.588 68.791 L
464.673 68.775 L
465.758 68.759 L
466.843 68.743 L
467.928 68.727 L
469.013 68.712 L
470.098 68.697 L
471.183 68.682 L
472.268 68.668 L
473.353 68.653 L
474.438 68.639 L
475.523 68.625 L
476.608 68.611 L
477.693 68.598 L
478.778 68.585 L
479.863 68.572 L
480.948 68.559 L
482.033 68.546 L
483.118 68.534 L
484.203 68.521 L
485.288 68.509 L
486.373 68.497 L
487.458 68.486 L
488.543 68.474 L
489.628 68.463 L
490.713 68.452 L
491.798 68.441 L
492.883 68.43 L
493.968 68.419 L
495.053 68.409 L
496.138 68.398 L
497.223 68.388 L
498.308 68.378 L
499.393 68.368 L
500.478 68.359 L
501.563 68.349 L
502.648 68.34 L
503.733 68.331 L
504.818 68.321 L
505.363 68.317 L
505.909 68.312 L
506.454 68.308 L
507 68.304 L
S
GR
%%Trailer
%%Pages: 1
%%EOF
