%!PS-Adobe-3.0 EPSF-3.0
%%Creator: (MATLAB, The Mathworks, Inc. Version 9.3.0.713579 \(R2017b\). Operating System: Linux)
%%Title: ../latex/img/ii-b.eps
%%CreationDate: 2018-02-12T17:50:37
%%Pages: (atend)
%%BoundingBox:    16     4   387   296
%%LanguageLevel: 3
%%EndComments
%%BeginProlog
%%BeginResource: procset (Apache XML Graphics Std ProcSet) 1.2 0
%%Version: 1.2 0
%%Copyright: (Copyright 2001-2003,2010 The Apache Software Foundation. License terms: http://www.apache.org/licenses/LICENSE-2.0)
/bd{bind def}bind def
/ld{load def}bd
/GR/grestore ld
/GS/gsave ld
/RM/rmoveto ld
/C/curveto ld
/t/show ld
/L/lineto ld
/ML/setmiterlimit ld
/CT/concat ld
/f/fill ld
/N/newpath ld
/S/stroke ld
/CC/setcmykcolor ld
/A/ashow ld
/cp/closepath ld
/RC/setrgbcolor ld
/LJ/setlinejoin ld
/GC/setgray ld
/LW/setlinewidth ld
/M/moveto ld
/re {4 2 roll M
1 index 0 rlineto
0 exch rlineto
neg 0 rlineto
cp } bd
/_ctm matrix def
/_tm matrix def
/BT { _ctm currentmatrix pop matrix _tm copy pop 0 0 moveto } bd
/ET { _ctm setmatrix } bd
/iTm { _ctm setmatrix _tm concat } bd
/Tm { _tm astore pop iTm 0 0 moveto } bd
/ux 0.0 def
/uy 0.0 def
/F {
  /Tp exch def
  /Tf exch def
  Tf findfont Tp scalefont setfont
  /cf Tf def  /cs Tp def
} bd
/ULS {currentpoint /uy exch def /ux exch def} bd
/ULE {
  /Tcx currentpoint pop def
  gsave
  newpath
  cf findfont cs scalefont dup
  /FontMatrix get 0 get /Ts exch def /FontInfo get dup
  /UnderlinePosition get Ts mul /To exch def
  /UnderlineThickness get Ts mul /Tt exch def
  ux uy To add moveto  Tcx uy To add lineto
  Tt setlinewidth stroke
  grestore
} bd
/OLE {
  /Tcx currentpoint pop def
  gsave
  newpath
  cf findfont cs scalefont dup
  /FontMatrix get 0 get /Ts exch def /FontInfo get dup
  /UnderlinePosition get Ts mul /To exch def
  /UnderlineThickness get Ts mul /Tt exch def
  ux uy To add cs add moveto Tcx uy To add cs add lineto
  Tt setlinewidth stroke
  grestore
} bd
/SOE {
  /Tcx currentpoint pop def
  gsave
  newpath
  cf findfont cs scalefont dup
  /FontMatrix get 0 get /Ts exch def /FontInfo get dup
  /UnderlinePosition get Ts mul /To exch def
  /UnderlineThickness get Ts mul /Tt exch def
  ux uy To add cs 10 mul 26 idiv add moveto Tcx uy To add cs 10 mul 26 idiv add lineto
  Tt setlinewidth stroke
  grestore
} bd
/QT {
/Y22 exch store
/X22 exch store
/Y21 exch store
/X21 exch store
currentpoint
/Y21 load 2 mul add 3 div exch
/X21 load 2 mul add 3 div exch
/X21 load 2 mul /X22 load add 3 div
/Y21 load 2 mul /Y22 load add 3 div
/X22 load /Y22 load curveto
} bd
/SSPD {
dup length /d exch dict def
{
/v exch def
/k exch def
currentpagedevice k known {
/cpdv currentpagedevice k get def
v cpdv ne {
/upd false def
/nullv v type /nulltype eq def
/nullcpdv cpdv type /nulltype eq def
nullv nullcpdv or
{
/upd true def
} {
/sametype v type cpdv type eq def
sametype {
v type /arraytype eq {
/vlen v length def
/cpdvlen cpdv length def
vlen cpdvlen eq {
0 1 vlen 1 sub {
/i exch def
/obj v i get def
/cpdobj cpdv i get def
obj cpdobj ne {
/upd true def
exit
} if
} for
} {
/upd true def
} ifelse
} {
v type /dicttype eq {
v {
/dv exch def
/dk exch def
/cpddv cpdv dk get def
dv cpddv ne {
/upd true def
exit
} if
} forall
} {
/upd true def
} ifelse
} ifelse
} if
} ifelse
upd true eq {
d k v put
} if
} if
} if
} forall
d length 0 gt {
d setpagedevice
} if
} bd
/RE { % /NewFontName [NewEncodingArray] /FontName RE -
  findfont dup length dict begin
  {
    1 index /FID ne
    {def} {pop pop} ifelse
  } forall
  /Encoding exch def
  /FontName 1 index def
  currentdict definefont pop
  end
} bind def
%%EndResource
%%BeginResource: procset (Apache XML Graphics EPS ProcSet) 1.0 0
%%Version: 1.0 0
%%Copyright: (Copyright 2002-2003 The Apache Software Foundation. License terms: http://www.apache.org/licenses/LICENSE-2.0)
/BeginEPSF { %def
/b4_Inc_state save def         % Save state for cleanup
/dict_count countdictstack def % Count objects on dict stack
/op_count count 1 sub def      % Count objects on operand stack
userdict begin                 % Push userdict on dict stack
/showpage { } def              % Redefine showpage, { } = null proc
0 setgray 0 setlinecap         % Prepare graphics state
1 setlinewidth 0 setlinejoin
10 setmiterlimit [ ] 0 setdash newpath
/languagelevel where           % If level not equal to 1 then
{pop languagelevel             % set strokeadjust and
1 ne                           % overprint to their defaults.
{false setstrokeadjust false setoverprint
} if
} if
} bd
/EndEPSF { %def
count op_count sub {pop} repeat            % Clean up stacks
countdictstack dict_count sub {end} repeat
b4_Inc_state restore
} bd
%%EndResource
%FOPBeginFontDict
%%IncludeResource: font Courier-Oblique
%%IncludeResource: font Courier-BoldOblique
%%IncludeResource: font Courier-Bold
%%IncludeResource: font ZapfDingbats
%%IncludeResource: font Symbol
%%IncludeResource: font Helvetica
%%IncludeResource: font Helvetica-Oblique
%%IncludeResource: font Helvetica-Bold
%%IncludeResource: font Helvetica-BoldOblique
%%IncludeResource: font Times-Roman
%%IncludeResource: font Times-Italic
%%IncludeResource: font Times-Bold
%%IncludeResource: font Times-BoldItalic
%%IncludeResource: font Courier
%FOPEndFontDict
%%BeginResource: encoding WinAnsiEncoding
/WinAnsiEncoding [
/.notdef /.notdef /.notdef /.notdef /.notdef
/.notdef /.notdef /.notdef /.notdef /.notdef
/.notdef /.notdef /.notdef /.notdef /.notdef
/.notdef /.notdef /.notdef /.notdef /.notdef
/.notdef /.notdef /.notdef /.notdef /.notdef
/.notdef /.notdef /.notdef /.notdef /.notdef
/.notdef /.notdef /space /exclam /quotedbl
/numbersign /dollar /percent /ampersand /quotesingle
/parenleft /parenright /asterisk /plus /comma
/hyphen /period /slash /zero /one
/two /three /four /five /six
/seven /eight /nine /colon /semicolon
/less /equal /greater /question /at
/A /B /C /D /E
/F /G /H /I /J
/K /L /M /N /O
/P /Q /R /S /T
/U /V /W /X /Y
/Z /bracketleft /backslash /bracketright /asciicircum
/underscore /quoteleft /a /b /c
/d /e /f /g /h
/i /j /k /l /m
/n /o /p /q /r
/s /t /u /v /w
/x /y /z /braceleft /bar
/braceright /asciitilde /bullet /Euro /bullet
/quotesinglbase /florin /quotedblbase /ellipsis /dagger
/daggerdbl /circumflex /perthousand /Scaron /guilsinglleft
/OE /bullet /Zcaron /bullet /bullet
/quoteleft /quoteright /quotedblleft /quotedblright /bullet
/endash /emdash /asciitilde /trademark /scaron
/guilsinglright /oe /bullet /zcaron /Ydieresis
/space /exclamdown /cent /sterling /currency
/yen /brokenbar /section /dieresis /copyright
/ordfeminine /guillemotleft /logicalnot /sfthyphen /registered
/macron /degree /plusminus /twosuperior /threesuperior
/acute /mu /paragraph /middot /cedilla
/onesuperior /ordmasculine /guillemotright /onequarter /onehalf
/threequarters /questiondown /Agrave /Aacute /Acircumflex
/Atilde /Adieresis /Aring /AE /Ccedilla
/Egrave /Eacute /Ecircumflex /Edieresis /Igrave
/Iacute /Icircumflex /Idieresis /Eth /Ntilde
/Ograve /Oacute /Ocircumflex /Otilde /Odieresis
/multiply /Oslash /Ugrave /Uacute /Ucircumflex
/Udieresis /Yacute /Thorn /germandbls /agrave
/aacute /acircumflex /atilde /adieresis /aring
/ae /ccedilla /egrave /eacute /ecircumflex
/edieresis /igrave /iacute /icircumflex /idieresis
/eth /ntilde /ograve /oacute /ocircumflex
/otilde /odieresis /divide /oslash /ugrave
/uacute /ucircumflex /udieresis /yacute /thorn
/ydieresis
] def
%%EndResource
%FOPBeginFontReencode
/Courier-Oblique findfont
dup length dict begin
  {1 index /FID ne {def} {pop pop} ifelse} forall
  /Encoding WinAnsiEncoding def
  currentdict
end
/Courier-Oblique exch definefont pop
/Courier-BoldOblique findfont
dup length dict begin
  {1 index /FID ne {def} {pop pop} ifelse} forall
  /Encoding WinAnsiEncoding def
  currentdict
end
/Courier-BoldOblique exch definefont pop
/Courier-Bold findfont
dup length dict begin
  {1 index /FID ne {def} {pop pop} ifelse} forall
  /Encoding WinAnsiEncoding def
  currentdict
end
/Courier-Bold exch definefont pop
/Helvetica findfont
dup length dict begin
  {1 index /FID ne {def} {pop pop} ifelse} forall
  /Encoding WinAnsiEncoding def
  currentdict
end
/Helvetica exch definefont pop
/Helvetica-Oblique findfont
dup length dict begin
  {1 index /FID ne {def} {pop pop} ifelse} forall
  /Encoding WinAnsiEncoding def
  currentdict
end
/Helvetica-Oblique exch definefont pop
/Helvetica-Bold findfont
dup length dict begin
  {1 index /FID ne {def} {pop pop} ifelse} forall
  /Encoding WinAnsiEncoding def
  currentdict
end
/Helvetica-Bold exch definefont pop
/Helvetica-BoldOblique findfont
dup length dict begin
  {1 index /FID ne {def} {pop pop} ifelse} forall
  /Encoding WinAnsiEncoding def
  currentdict
end
/Helvetica-BoldOblique exch definefont pop
/Times-Roman findfont
dup length dict begin
  {1 index /FID ne {def} {pop pop} ifelse} forall
  /Encoding WinAnsiEncoding def
  currentdict
end
/Times-Roman exch definefont pop
/Times-Italic findfont
dup length dict begin
  {1 index /FID ne {def} {pop pop} ifelse} forall
  /Encoding WinAnsiEncoding def
  currentdict
end
/Times-Italic exch definefont pop
/Times-Bold findfont
dup length dict begin
  {1 index /FID ne {def} {pop pop} ifelse} forall
  /Encoding WinAnsiEncoding def
  currentdict
end
/Times-Bold exch definefont pop
/Times-BoldItalic findfont
dup length dict begin
  {1 index /FID ne {def} {pop pop} ifelse} forall
  /Encoding WinAnsiEncoding def
  currentdict
end
/Times-BoldItalic exch definefont pop
/Courier findfont
dup length dict begin
  {1 index /FID ne {def} {pop pop} ifelse} forall
  /Encoding WinAnsiEncoding def
  currentdict
end
/Courier exch definefont pop
%FOPEndFontReencode
%%EndProlog
%%Page: 1 1
%%PageBoundingBox: 0 0 420 315
%%BeginPageSetup
[1 0 0 -1 0 315] CT
%%EndPageSetup
GS
[0.75 0 0 0.75 0 0] CT
1 GC
N
0 0 560 420 re
f
GR
GS
[0.75 0 0 0.75 0 0] CT
1 GC
N
0 0 560 420 re
f
GR
GS
[0.75 0 0 0.75 0 0] CT
1 GC
N
73 374 M
507 374 L
507 31 L
73 31 L
cp
f
GR
GS
[0.75 0 0 0.75 0 0] CT
0.149 GC
2 setlinecap
1 LJ
0.667 LW
N
73 374 M
507 374 L
S
GR
GS
[0.75 0 0 0.75 0 0] CT
0.149 GC
2 setlinecap
1 LJ
0.667 LW
N
73 31 M
507 31 L
S
GR
GS
[0.75 0 0 0.75 0 0] CT
0.149 GC
2 setlinecap
1 LJ
0.667 LW
N
73 374 M
73 369.66 L
S
GR
GS
[0.75 0 0 0.75 0 0] CT
0.149 GC
2 setlinecap
1 LJ
0.667 LW
N
217.667 374 M
217.667 369.66 L
S
GR
GS
[0.75 0 0 0.75 0 0] CT
0.149 GC
2 setlinecap
1 LJ
0.667 LW
N
362.333 374 M
362.333 369.66 L
S
GR
GS
[0.75 0 0 0.75 0 0] CT
0.149 GC
2 setlinecap
1 LJ
0.667 LW
N
507 374 M
507 369.66 L
S
GR
GS
[0.75 0 0 0.75 0 0] CT
0.149 GC
2 setlinecap
1 LJ
0.667 LW
N
73 31 M
73 35.34 L
S
GR
GS
[0.75 0 0 0.75 0 0] CT
0.149 GC
2 setlinecap
1 LJ
0.667 LW
N
217.667 31 M
217.667 35.34 L
S
GR
GS
[0.75 0 0 0.75 0 0] CT
0.149 GC
2 setlinecap
1 LJ
0.667 LW
N
362.333 31 M
362.333 35.34 L
S
GR
GS
[0.75 0 0 0.75 0 0] CT
0.149 GC
2 setlinecap
1 LJ
0.667 LW
N
507 31 M
507 35.34 L
S
GR
GS
[0.75 0 0 0.75 54.75 284.50001] CT
0.149 GC
/Helvetica 13.333 F
GS
[1 0 0 1 0 0] CT
-4.5 13 moveto 
1 -1 scale
(0) t 
GR
GR
GS
[0.75 0 0 0.75 163.25 284.50001] CT
0.149 GC
/Helvetica 13.333 F
GS
[1 0 0 1 0 0] CT
-11 13 moveto 
1 -1 scale
(0.5) t 
GR
GR
GS
[0.75 0 0 0.75 271.75001 284.50001] CT
0.149 GC
/Helvetica 13.333 F
GS
[1 0 0 1 0 0] CT
-4.5 13 moveto 
1 -1 scale
(1) t 
GR
GR
GS
[0.75 0 0 0.75 380.25 284.50001] CT
0.149 GC
/Helvetica 13.333 F
GS
[1 0 0 1 0 0] CT
-11 13 moveto 
1 -1 scale
(1.5) t 
GR
GR
GS
[0.75 0 0 0.75 217.50016 298.24999] CT
0.149 GC
/Helvetica 14.667 F
GS
[1 0 0 1 0 0] CT
-15 14 moveto 
1 -1 scale
(t \(s\)) t 
GR
GR
GS
[0.75 0 0 0.75 0 0] CT
0.149 GC
2 setlinecap
1 LJ
0.667 LW
N
73 374 M
73 31 L
S
GR
GS
[0.75 0 0 0.75 0 0] CT
0.149 GC
2 setlinecap
1 LJ
0.667 LW
N
507 374 M
507 31 L
S
GR
GS
[0.75 0 0 0.75 0 0] CT
0.149 GC
2 setlinecap
1 LJ
0.667 LW
N
73 374 M
77.34 374 L
S
GR
GS
[0.75 0 0 0.75 0 0] CT
0.149 GC
2 setlinecap
1 LJ
0.667 LW
N
73 316.833 M
77.34 316.833 L
S
GR
GS
[0.75 0 0 0.75 0 0] CT
0.149 GC
2 setlinecap
1 LJ
0.667 LW
N
73 259.667 M
77.34 259.667 L
S
GR
GS
[0.75 0 0 0.75 0 0] CT
0.149 GC
2 setlinecap
1 LJ
0.667 LW
N
73 202.5 M
77.34 202.5 L
S
GR
GS
[0.75 0 0 0.75 0 0] CT
0.149 GC
2 setlinecap
1 LJ
0.667 LW
N
73 145.333 M
77.34 145.333 L
S
GR
GS
[0.75 0 0 0.75 0 0] CT
0.149 GC
2 setlinecap
1 LJ
0.667 LW
N
73 88.167 M
77.34 88.167 L
S
GR
GS
[0.75 0 0 0.75 0 0] CT
0.149 GC
2 setlinecap
1 LJ
0.667 LW
N
73 31 M
77.34 31 L
S
GR
GS
[0.75 0 0 0.75 0 0] CT
0.149 GC
2 setlinecap
1 LJ
0.667 LW
N
507 374 M
502.66 374 L
S
GR
GS
[0.75 0 0 0.75 0 0] CT
0.149 GC
2 setlinecap
1 LJ
0.667 LW
N
507 316.833 M
502.66 316.833 L
S
GR
GS
[0.75 0 0 0.75 0 0] CT
0.149 GC
2 setlinecap
1 LJ
0.667 LW
N
507 259.667 M
502.66 259.667 L
S
GR
GS
[0.75 0 0 0.75 0 0] CT
0.149 GC
2 setlinecap
1 LJ
0.667 LW
N
507 202.5 M
502.66 202.5 L
S
GR
GS
[0.75 0 0 0.75 0 0] CT
0.149 GC
2 setlinecap
1 LJ
0.667 LW
N
507 145.333 M
502.66 145.333 L
S
GR
GS
[0.75 0 0 0.75 0 0] CT
0.149 GC
2 setlinecap
1 LJ
0.667 LW
N
507 88.167 M
502.66 88.167 L
S
GR
GS
[0.75 0 0 0.75 0 0] CT
0.149 GC
2 setlinecap
1 LJ
0.667 LW
N
507 31 M
502.66 31 L
S
GR
GS
[0.75 0 0 0.75 50.75 280.5] CT
0.149 GC
/Helvetica 13.333 F
GS
[1 0 0 1 0 0] CT
-9 4.5 moveto 
1 -1 scale
(0) t 
GR
GR
GS
[0.75 0 0 0.75 50.75 237.62501] CT
0.149 GC
/Helvetica 13.333 F
GS
[1 0 0 1 0 0] CT
-26 4.5 moveto 
1 -1 scale
(100) t 
GR
GR
GS
[0.75 0 0 0.75 50.75 194.74999] CT
0.149 GC
/Helvetica 13.333 F
GS
[1 0 0 1 0 0] CT
-26 4.5 moveto 
1 -1 scale
(200) t 
GR
GR
GS
[0.75 0 0 0.75 50.75 151.875] CT
0.149 GC
/Helvetica 13.333 F
GS
[1 0 0 1 0 0] CT
-26 4.5 moveto 
1 -1 scale
(300) t 
GR
GR
GS
[0.75 0 0 0.75 50.75 109] CT
0.149 GC
/Helvetica 13.333 F
GS
[1 0 0 1 0 0] CT
-26 4.5 moveto 
1 -1 scale
(400) t 
GR
GR
GS
[0.75 0 0 0.75 50.75 66.125] CT
0.149 GC
/Helvetica 13.333 F
GS
[1 0 0 1 0 0] CT
-26 4.5 moveto 
1 -1 scale
(500) t 
GR
GR
GS
[0.75 0 0 0.75 50.75 23.25] CT
0.149 GC
/Helvetica 13.333 F
GS
[1 0 0 1 0 0] CT
-26 4.5 moveto 
1 -1 scale
(600) t 
GR
GR
GS
[0 -0.75 0.75 0 28.25 151.87489] CT
0.149 GC
/Helvetica 14.667 F
GS
[1 0 0 1 0 0] CT
-47.5 -4 moveto 
1 -1 scale
(dE/dt \(deg/s\)) t 
GR
GR
GS
[0.75 0 0 0.75 0 0] CT
1 0 1 RC
1 LJ
2.667 LW
N
73 73.123 M
73 73.123 L
73 73.123 L
73 73.123 L
73 73.123 L
73 73.124 L
73 73.125 L
73.001 73.125 L
73.001 73.126 L
73.001 73.129 L
73.002 73.132 L
73.003 73.135 L
73.003 73.138 L
73.007 73.153 L
73.01 73.168 L
73.014 73.183 L
73.017 73.198 L
73.034 73.274 L
73.052 73.349 L
73.069 73.425 L
73.086 73.5 L
73.173 73.878 L
73.259 74.254 L
73.345 74.63 L
73.431 75.006 L
73.863 76.878 L
74.295 78.738 L
74.726 80.586 L
75.158 82.423 L
76.243 86.991 L
77.328 91.487 L
78.413 95.913 L
79.498 100.269 L
80.583 104.557 L
81.668 108.778 L
82.753 112.933 L
83.838 117.023 L
84.923 121.048 L
86.008 125.011 L
87.093 128.911 L
88.178 132.751 L
89.263 136.53 L
90.348 140.25 L
91.433 143.912 L
92.518 147.516 L
93.603 151.064 L
94.688 154.557 L
95.773 157.994 L
96.858 161.378 L
97.943 164.709 L
99.028 167.988 L
100.113 171.215 L
101.198 174.392 L
102.283 177.519 L
103.368 180.597 L
104.453 183.626 L
105.538 186.609 L
106.623 189.544 L
107.708 192.434 L
108.793 195.278 L
109.878 198.078 L
110.963 200.834 L
112.048 203.547 L
113.133 206.217 L
114.218 208.845 L
115.303 211.432 L
116.388 213.979 L
117.473 216.486 L
118.558 218.954 L
119.643 221.382 L
120.728 223.773 L
121.813 226.127 L
122.898 228.443 L
123.983 230.723 L
125.068 232.968 L
126.153 235.177 L
127.238 237.352 L
128.323 239.493 L
129.408 241.6 L
130.493 243.674 L
131.578 245.715 L
132.663 247.725 L
133.748 249.703 L
134.833 251.65 L
135.918 253.567 L
137.003 255.454 L
138.088 257.311 L
139.173 259.139 L
140.258 260.938 L
141.343 262.709 L
142.428 264.453 L
143.513 266.169 L
144.598 267.858 L
145.683 269.521 L
146.768 271.158 L
147.853 272.769 L
148.938 274.354 L
150.023 275.915 L
151.108 277.452 L
152.193 278.964 L
153.278 280.453 L
154.363 281.919 L
155.448 283.361 L
156.533 284.781 L
157.618 286.179 L
158.703 287.554 L
159.788 288.909 L
160.873 290.242 L
161.958 291.554 L
163.043 292.845 L
164.128 294.117 L
165.213 295.368 L
166.298 296.6 L
167.383 297.812 L
168.468 299.006 L
169.553 300.181 L
170.638 301.337 L
171.723 302.475 L
172.808 303.596 L
173.893 304.699 L
174.978 305.784 L
176.063 306.853 L
177.148 307.905 L
178.233 308.94 L
179.318 309.96 L
180.403 310.963 L
181.488 311.95 L
182.573 312.922 L
183.658 313.879 L
184.743 314.821 L
185.828 315.748 L
186.913 316.661 L
187.998 317.559 L
189.083 318.443 L
190.168 319.313 L
191.253 320.17 L
192.338 321.013 L
193.423 321.843 L
194.508 322.66 L
195.593 323.465 L
196.678 324.256 L
197.763 325.036 L
198.848 325.803 L
199.933 326.558 L
201.018 327.301 L
202.103 328.032 L
203.188 328.753 L
204.273 329.461 L
205.358 330.159 L
206.443 330.846 L
207.528 331.522 L
208.613 332.187 L
209.698 332.842 L
210.783 333.487 L
211.868 334.122 L
212.953 334.746 L
214.038 335.361 L
215.123 335.967 L
216.208 336.563 L
217.293 337.149 L
218.378 337.726 L
219.463 338.295 L
220.548 338.854 L
221.633 339.404 L
222.718 339.946 L
223.803 340.48 L
224.888 341.005 L
225.973 341.522 L
227.058 342.031 L
228.143 342.531 L
229.228 343.024 L
230.313 343.51 L
231.398 343.987 L
232.483 344.457 L
233.568 344.92 L
234.653 345.376 L
235.738 345.824 L
236.823 346.266 L
237.908 346.7 L
238.993 347.128 L
240.078 347.549 L
241.163 347.963 L
242.248 348.371 L
243.333 348.772 L
244.418 349.168 L
245.503 349.557 L
246.588 349.94 L
247.673 350.317 L
248.758 350.688 L
249.843 351.053 L
250.928 351.412 L
252.013 351.766 L
253.098 352.114 L
254.183 352.457 L
255.268 352.795 L
256.353 353.127 L
257.438 353.454 L
258.523 353.776 L
259.608 354.093 L
260.693 354.404 L
261.778 354.711 L
262.863 355.014 L
263.948 355.311 L
265.033 355.604 L
266.118 355.892 L
267.203 356.176 L
268.288 356.455 L
269.373 356.73 L
270.458 357 L
271.543 357.267 L
272.628 357.529 L
273.713 357.787 L
274.798 358.041 L
275.883 358.291 L
276.968 358.537 L
278.053 358.779 L
279.138 359.017 L
280.223 359.252 L
281.308 359.483 L
282.393 359.711 L
283.478 359.935 L
284.563 360.155 L
285.648 360.372 L
286.733 360.585 L
287.818 360.795 L
288.903 361.002 L
289.988 361.206 L
291.073 361.406 L
292.158 361.604 L
293.243 361.798 L
294.328 361.989 L
295.413 362.177 L
296.498 362.362 L
297.583 362.545 L
298.668 362.724 L
299.753 362.901 L
300.838 363.075 L
301.923 363.246 L
303.008 363.414 L
304.093 363.58 L
305.178 363.743 L
306.263 363.904 L
307.348 364.062 L
308.433 364.218 L
309.518 364.371 L
310.603 364.522 L
311.688 364.67 L
312.773 364.816 L
313.858 364.96 L
314.943 365.102 L
316.028 365.241 L
317.113 365.379 L
318.198 365.514 L
319.283 365.647 L
320.368 365.777 L
321.453 365.906 L
322.538 366.033 L
323.623 366.158 L
324.708 366.281 L
325.793 366.402 L
326.878 366.521 L
327.963 366.638 L
329.048 366.753 L
330.133 366.867 L
331.218 366.978 L
332.303 367.088 L
333.388 367.197 L
334.473 367.303 L
335.558 367.408 L
336.643 367.511 L
337.728 367.613 L
338.813 367.713 L
339.898 367.812 L
340.983 367.909 L
342.068 368.004 L
343.153 368.098 L
344.238 368.19 L
345.323 368.281 L
346.408 368.371 L
347.493 368.459 L
348.578 368.546 L
349.663 368.631 L
350.748 368.716 L
351.833 368.798 L
352.918 368.88 L
354.003 368.96 L
355.088 369.039 L
356.173 369.117 L
357.258 369.193 L
358.343 369.268 L
359.428 369.343 L
360.513 369.416 L
361.598 369.487 L
362.683 369.558 L
363.768 369.628 L
364.853 369.696 L
365.938 369.764 L
367.023 369.83 L
368.108 369.895 L
369.193 369.96 L
370.278 370.023 L
371.363 370.085 L
372.448 370.146 L
373.533 370.207 L
374.618 370.266 L
375.703 370.325 L
376.788 370.382 L
377.873 370.439 L
378.958 370.495 L
380.043 370.55 L
381.128 370.604 L
382.213 370.657 L
383.298 370.709 L
384.383 370.761 L
385.468 370.812 L
386.553 370.862 L
387.638 370.911 L
388.723 370.959 L
389.808 371.007 L
390.893 371.054 L
391.978 371.1 L
393.063 371.145 L
394.148 371.19 L
395.233 371.234 L
396.318 371.277 L
397.403 371.32 L
398.488 371.362 L
399.573 371.403 L
400.658 371.444 L
401.743 371.484 L
402.828 371.523 L
403.913 371.562 L
404.998 371.6 L
406.083 371.638 L
407.168 371.675 L
408.253 371.711 L
409.338 371.747 L
410.423 371.783 L
411.508 371.817 L
412.593 371.851 L
413.678 371.885 L
414.763 371.918 L
415.848 371.951 L
416.933 371.983 L
418.018 372.015 L
419.103 372.046 L
420.188 372.076 L
421.273 372.106 L
422.358 372.136 L
423.443 372.165 L
424.528 372.194 L
425.613 372.222 L
426.698 372.25 L
427.783 372.278 L
428.868 372.305 L
429.953 372.331 L
431.038 372.357 L
432.123 372.383 L
433.208 372.408 L
434.293 372.433 L
435.378 372.458 L
436.463 372.482 L
437.548 372.506 L
438.633 372.529 L
439.718 372.552 L
440.803 372.575 L
441.888 372.597 L
442.973 372.619 L
444.058 372.641 L
445.143 372.662 L
446.228 372.683 L
447.313 372.704 L
448.398 372.724 L
449.483 372.744 L
450.568 372.764 L
451.653 372.783 L
452.738 372.802 L
453.823 372.821 L
454.908 372.839 L
455.993 372.858 L
457.078 372.875 L
458.163 372.893 L
459.248 372.91 L
460.333 372.927 L
461.418 372.944 L
462.503 372.961 L
463.588 372.977 L
464.673 372.993 L
465.758 373.009 L
466.843 373.024 L
467.928 373.04 L
469.013 373.055 L
470.098 373.07 L
471.183 373.084 L
472.268 373.098 L
473.353 373.113 L
474.438 373.126 L
475.523 373.14 L
476.608 373.154 L
477.693 373.167 L
478.778 373.18 L
479.863 373.193 L
480.948 373.205 L
482.033 373.218 L
483.118 373.23 L
484.203 373.242 L
485.288 373.254 L
486.373 373.266 L
487.458 373.277 L
488.543 373.289 L
489.628 373.3 L
490.713 373.311 L
491.798 373.322 L
492.883 373.332 L
493.968 373.343 L
495.053 373.353 L
496.138 373.363 L
497.223 373.373 L
498.308 373.383 L
499.393 373.392 L
500.478 373.402 L
501.563 373.411 L
502.648 373.421 L
503.733 373.43 L
504.818 373.439 L
505.363 373.443 L
505.909 373.447 L
506.454 373.452 L
507 373.456 L
S
GR
%%Trailer
%%Pages: 1
%%EOF
