%!PS-Adobe-3.0 EPSF-3.0
%%Creator: (MATLAB, The Mathworks, Inc. Version 9.3.0.713579 \(R2017b\). Operating System: Linux)
%%Title: ../latex/img/robinson-pulse-step.eps
%%CreationDate: 2018-02-05T17:22:24
%%Pages: (atend)
%%BoundingBox:    20     6   383   296
%%LanguageLevel: 3
%%EndComments
%%BeginProlog
%%BeginResource: procset (Apache XML Graphics Std ProcSet) 1.2 0
%%Version: 1.2 0
%%Copyright: (Copyright 2001-2003,2010 The Apache Software Foundation. License terms: http://www.apache.org/licenses/LICENSE-2.0)
/bd{bind def}bind def
/ld{load def}bd
/GR/grestore ld
/GS/gsave ld
/RM/rmoveto ld
/C/curveto ld
/t/show ld
/L/lineto ld
/ML/setmiterlimit ld
/CT/concat ld
/f/fill ld
/N/newpath ld
/S/stroke ld
/CC/setcmykcolor ld
/A/ashow ld
/cp/closepath ld
/RC/setrgbcolor ld
/LJ/setlinejoin ld
/GC/setgray ld
/LW/setlinewidth ld
/M/moveto ld
/re {4 2 roll M
1 index 0 rlineto
0 exch rlineto
neg 0 rlineto
cp } bd
/_ctm matrix def
/_tm matrix def
/BT { _ctm currentmatrix pop matrix _tm copy pop 0 0 moveto } bd
/ET { _ctm setmatrix } bd
/iTm { _ctm setmatrix _tm concat } bd
/Tm { _tm astore pop iTm 0 0 moveto } bd
/ux 0.0 def
/uy 0.0 def
/F {
  /Tp exch def
  /Tf exch def
  Tf findfont Tp scalefont setfont
  /cf Tf def  /cs Tp def
} bd
/ULS {currentpoint /uy exch def /ux exch def} bd
/ULE {
  /Tcx currentpoint pop def
  gsave
  newpath
  cf findfont cs scalefont dup
  /FontMatrix get 0 get /Ts exch def /FontInfo get dup
  /UnderlinePosition get Ts mul /To exch def
  /UnderlineThickness get Ts mul /Tt exch def
  ux uy To add moveto  Tcx uy To add lineto
  Tt setlinewidth stroke
  grestore
} bd
/OLE {
  /Tcx currentpoint pop def
  gsave
  newpath
  cf findfont cs scalefont dup
  /FontMatrix get 0 get /Ts exch def /FontInfo get dup
  /UnderlinePosition get Ts mul /To exch def
  /UnderlineThickness get Ts mul /Tt exch def
  ux uy To add cs add moveto Tcx uy To add cs add lineto
  Tt setlinewidth stroke
  grestore
} bd
/SOE {
  /Tcx currentpoint pop def
  gsave
  newpath
  cf findfont cs scalefont dup
  /FontMatrix get 0 get /Ts exch def /FontInfo get dup
  /UnderlinePosition get Ts mul /To exch def
  /UnderlineThickness get Ts mul /Tt exch def
  ux uy To add cs 10 mul 26 idiv add moveto Tcx uy To add cs 10 mul 26 idiv add lineto
  Tt setlinewidth stroke
  grestore
} bd
/QT {
/Y22 exch store
/X22 exch store
/Y21 exch store
/X21 exch store
currentpoint
/Y21 load 2 mul add 3 div exch
/X21 load 2 mul add 3 div exch
/X21 load 2 mul /X22 load add 3 div
/Y21 load 2 mul /Y22 load add 3 div
/X22 load /Y22 load curveto
} bd
/SSPD {
dup length /d exch dict def
{
/v exch def
/k exch def
currentpagedevice k known {
/cpdv currentpagedevice k get def
v cpdv ne {
/upd false def
/nullv v type /nulltype eq def
/nullcpdv cpdv type /nulltype eq def
nullv nullcpdv or
{
/upd true def
} {
/sametype v type cpdv type eq def
sametype {
v type /arraytype eq {
/vlen v length def
/cpdvlen cpdv length def
vlen cpdvlen eq {
0 1 vlen 1 sub {
/i exch def
/obj v i get def
/cpdobj cpdv i get def
obj cpdobj ne {
/upd true def
exit
} if
} for
} {
/upd true def
} ifelse
} {
v type /dicttype eq {
v {
/dv exch def
/dk exch def
/cpddv cpdv dk get def
dv cpddv ne {
/upd true def
exit
} if
} forall
} {
/upd true def
} ifelse
} ifelse
} if
} ifelse
upd true eq {
d k v put
} if
} if
} if
} forall
d length 0 gt {
d setpagedevice
} if
} bd
/RE { % /NewFontName [NewEncodingArray] /FontName RE -
  findfont dup length dict begin
  {
    1 index /FID ne
    {def} {pop pop} ifelse
  } forall
  /Encoding exch def
  /FontName 1 index def
  currentdict definefont pop
  end
} bind def
%%EndResource
%%BeginResource: procset (Apache XML Graphics EPS ProcSet) 1.0 0
%%Version: 1.0 0
%%Copyright: (Copyright 2002-2003 The Apache Software Foundation. License terms: http://www.apache.org/licenses/LICENSE-2.0)
/BeginEPSF { %def
/b4_Inc_state save def         % Save state for cleanup
/dict_count countdictstack def % Count objects on dict stack
/op_count count 1 sub def      % Count objects on operand stack
userdict begin                 % Push userdict on dict stack
/showpage { } def              % Redefine showpage, { } = null proc
0 setgray 0 setlinecap         % Prepare graphics state
1 setlinewidth 0 setlinejoin
10 setmiterlimit [ ] 0 setdash newpath
/languagelevel where           % If level not equal to 1 then
{pop languagelevel             % set strokeadjust and
1 ne                           % overprint to their defaults.
{false setstrokeadjust false setoverprint
} if
} if
} bd
/EndEPSF { %def
count op_count sub {pop} repeat            % Clean up stacks
countdictstack dict_count sub {end} repeat
b4_Inc_state restore
} bd
%%EndResource
%FOPBeginFontDict
%%IncludeResource: font Courier-Oblique
%%IncludeResource: font Courier-BoldOblique
%%IncludeResource: font Courier-Bold
%%IncludeResource: font ZapfDingbats
%%IncludeResource: font Symbol
%%IncludeResource: font Helvetica
%%IncludeResource: font Helvetica-Oblique
%%IncludeResource: font Helvetica-Bold
%%IncludeResource: font Helvetica-BoldOblique
%%IncludeResource: font Times-Roman
%%IncludeResource: font Times-Italic
%%IncludeResource: font Times-Bold
%%IncludeResource: font Times-BoldItalic
%%IncludeResource: font Courier
%FOPEndFontDict
%%BeginResource: encoding WinAnsiEncoding
/WinAnsiEncoding [
/.notdef /.notdef /.notdef /.notdef /.notdef
/.notdef /.notdef /.notdef /.notdef /.notdef
/.notdef /.notdef /.notdef /.notdef /.notdef
/.notdef /.notdef /.notdef /.notdef /.notdef
/.notdef /.notdef /.notdef /.notdef /.notdef
/.notdef /.notdef /.notdef /.notdef /.notdef
/.notdef /.notdef /space /exclam /quotedbl
/numbersign /dollar /percent /ampersand /quotesingle
/parenleft /parenright /asterisk /plus /comma
/hyphen /period /slash /zero /one
/two /three /four /five /six
/seven /eight /nine /colon /semicolon
/less /equal /greater /question /at
/A /B /C /D /E
/F /G /H /I /J
/K /L /M /N /O
/P /Q /R /S /T
/U /V /W /X /Y
/Z /bracketleft /backslash /bracketright /asciicircum
/underscore /quoteleft /a /b /c
/d /e /f /g /h
/i /j /k /l /m
/n /o /p /q /r
/s /t /u /v /w
/x /y /z /braceleft /bar
/braceright /asciitilde /bullet /Euro /bullet
/quotesinglbase /florin /quotedblbase /ellipsis /dagger
/daggerdbl /circumflex /perthousand /Scaron /guilsinglleft
/OE /bullet /Zcaron /bullet /bullet
/quoteleft /quoteright /quotedblleft /quotedblright /bullet
/endash /emdash /asciitilde /trademark /scaron
/guilsinglright /oe /bullet /zcaron /Ydieresis
/space /exclamdown /cent /sterling /currency
/yen /brokenbar /section /dieresis /copyright
/ordfeminine /guillemotleft /logicalnot /sfthyphen /registered
/macron /degree /plusminus /twosuperior /threesuperior
/acute /mu /paragraph /middot /cedilla
/onesuperior /ordmasculine /guillemotright /onequarter /onehalf
/threequarters /questiondown /Agrave /Aacute /Acircumflex
/Atilde /Adieresis /Aring /AE /Ccedilla
/Egrave /Eacute /Ecircumflex /Edieresis /Igrave
/Iacute /Icircumflex /Idieresis /Eth /Ntilde
/Ograve /Oacute /Ocircumflex /Otilde /Odieresis
/multiply /Oslash /Ugrave /Uacute /Ucircumflex
/Udieresis /Yacute /Thorn /germandbls /agrave
/aacute /acircumflex /atilde /adieresis /aring
/ae /ccedilla /egrave /eacute /ecircumflex
/edieresis /igrave /iacute /icircumflex /idieresis
/eth /ntilde /ograve /oacute /ocircumflex
/otilde /odieresis /divide /oslash /ugrave
/uacute /ucircumflex /udieresis /yacute /thorn
/ydieresis
] def
%%EndResource
%FOPBeginFontReencode
/Courier-Oblique findfont
dup length dict begin
  {1 index /FID ne {def} {pop pop} ifelse} forall
  /Encoding WinAnsiEncoding def
  currentdict
end
/Courier-Oblique exch definefont pop
/Courier-BoldOblique findfont
dup length dict begin
  {1 index /FID ne {def} {pop pop} ifelse} forall
  /Encoding WinAnsiEncoding def
  currentdict
end
/Courier-BoldOblique exch definefont pop
/Courier-Bold findfont
dup length dict begin
  {1 index /FID ne {def} {pop pop} ifelse} forall
  /Encoding WinAnsiEncoding def
  currentdict
end
/Courier-Bold exch definefont pop
/Helvetica findfont
dup length dict begin
  {1 index /FID ne {def} {pop pop} ifelse} forall
  /Encoding WinAnsiEncoding def
  currentdict
end
/Helvetica exch definefont pop
/Helvetica-Oblique findfont
dup length dict begin
  {1 index /FID ne {def} {pop pop} ifelse} forall
  /Encoding WinAnsiEncoding def
  currentdict
end
/Helvetica-Oblique exch definefont pop
/Helvetica-Bold findfont
dup length dict begin
  {1 index /FID ne {def} {pop pop} ifelse} forall
  /Encoding WinAnsiEncoding def
  currentdict
end
/Helvetica-Bold exch definefont pop
/Helvetica-BoldOblique findfont
dup length dict begin
  {1 index /FID ne {def} {pop pop} ifelse} forall
  /Encoding WinAnsiEncoding def
  currentdict
end
/Helvetica-BoldOblique exch definefont pop
/Times-Roman findfont
dup length dict begin
  {1 index /FID ne {def} {pop pop} ifelse} forall
  /Encoding WinAnsiEncoding def
  currentdict
end
/Times-Roman exch definefont pop
/Times-Italic findfont
dup length dict begin
  {1 index /FID ne {def} {pop pop} ifelse} forall
  /Encoding WinAnsiEncoding def
  currentdict
end
/Times-Italic exch definefont pop
/Times-Bold findfont
dup length dict begin
  {1 index /FID ne {def} {pop pop} ifelse} forall
  /Encoding WinAnsiEncoding def
  currentdict
end
/Times-Bold exch definefont pop
/Times-BoldItalic findfont
dup length dict begin
  {1 index /FID ne {def} {pop pop} ifelse} forall
  /Encoding WinAnsiEncoding def
  currentdict
end
/Times-BoldItalic exch definefont pop
/Courier findfont
dup length dict begin
  {1 index /FID ne {def} {pop pop} ifelse} forall
  /Encoding WinAnsiEncoding def
  currentdict
end
/Courier exch definefont pop
%FOPEndFontReencode
%%EndProlog
%%Page: 1 1
%%PageBoundingBox: 0 0 420 315
%%BeginPageSetup
[1 0 0 -1 0 315] CT
%%EndPageSetup
GS
[0.75 0 0 0.75 0 0] CT
1 GC
N
0 0 560 420 re
f
GR
GS
[0.75 0 0 0.75 0 0] CT
1 GC
N
0 0 560 420 re
f
GR
GS
[0.75 0 0 0.75 0 0] CT
1 GC
N
73 374 M
507 374 L
507 31 L
73 31 L
cp
f
GR
GS
[0.75 0 0 0.75 0 0] CT
0.149 GC
2 setlinecap
1 LJ
0.667 LW
N
73 374 M
507 374 L
S
GR
GS
[0.75 0 0 0.75 0 0] CT
0.149 GC
2 setlinecap
1 LJ
0.667 LW
N
73 31 M
507 31 L
S
GR
GS
[0.75 0 0 0.75 0 0] CT
0.149 GC
2 setlinecap
1 LJ
0.667 LW
N
73 374 M
73 369.66 L
S
GR
GS
[0.75 0 0 0.75 0 0] CT
0.149 GC
2 setlinecap
1 LJ
0.667 LW
N
159.8 374 M
159.8 369.66 L
S
GR
GS
[0.75 0 0 0.75 0 0] CT
0.149 GC
2 setlinecap
1 LJ
0.667 LW
N
246.6 374 M
246.6 369.66 L
S
GR
GS
[0.75 0 0 0.75 0 0] CT
0.149 GC
2 setlinecap
1 LJ
0.667 LW
N
333.4 374 M
333.4 369.66 L
S
GR
GS
[0.75 0 0 0.75 0 0] CT
0.149 GC
2 setlinecap
1 LJ
0.667 LW
N
420.2 374 M
420.2 369.66 L
S
GR
GS
[0.75 0 0 0.75 0 0] CT
0.149 GC
2 setlinecap
1 LJ
0.667 LW
N
507 374 M
507 369.66 L
S
GR
GS
[0.75 0 0 0.75 0 0] CT
0.149 GC
2 setlinecap
1 LJ
0.667 LW
N
73 31 M
73 35.34 L
S
GR
GS
[0.75 0 0 0.75 0 0] CT
0.149 GC
2 setlinecap
1 LJ
0.667 LW
N
159.8 31 M
159.8 35.34 L
S
GR
GS
[0.75 0 0 0.75 0 0] CT
0.149 GC
2 setlinecap
1 LJ
0.667 LW
N
246.6 31 M
246.6 35.34 L
S
GR
GS
[0.75 0 0 0.75 0 0] CT
0.149 GC
2 setlinecap
1 LJ
0.667 LW
N
333.4 31 M
333.4 35.34 L
S
GR
GS
[0.75 0 0 0.75 0 0] CT
0.149 GC
2 setlinecap
1 LJ
0.667 LW
N
420.2 31 M
420.2 35.34 L
S
GR
GS
[0.75 0 0 0.75 0 0] CT
0.149 GC
2 setlinecap
1 LJ
0.667 LW
N
507 31 M
507 35.34 L
S
GR
GS
[0.75 0 0 0.75 54.75 284.50001] CT
0.149 GC
/Helvetica 13.333 F
GS
[1 0 0 1 0 0] CT
-4.5 13 moveto 
1 -1 scale
(0) t 
GR
GR
GS
[0.75 0 0 0.75 119.85 284.50001] CT
0.149 GC
/Helvetica 13.333 F
GS
[1 0 0 1 0 0] CT
-4.5 13 moveto 
1 -1 scale
(1) t 
GR
GR
GS
[0.75 0 0 0.75 184.95 284.50001] CT
0.149 GC
/Helvetica 13.333 F
GS
[1 0 0 1 0 0] CT
-4.5 13 moveto 
1 -1 scale
(2) t 
GR
GR
GS
[0.75 0 0 0.75 250.05 284.50001] CT
0.149 GC
/Helvetica 13.333 F
GS
[1 0 0 1 0 0] CT
-4.5 13 moveto 
1 -1 scale
(3) t 
GR
GR
GS
[0.75 0 0 0.75 315.15001 284.50001] CT
0.149 GC
/Helvetica 13.333 F
GS
[1 0 0 1 0 0] CT
-4.5 13 moveto 
1 -1 scale
(4) t 
GR
GR
GS
[0.75 0 0 0.75 380.25 284.50001] CT
0.149 GC
/Helvetica 13.333 F
GS
[1 0 0 1 0 0] CT
-4.5 13 moveto 
1 -1 scale
(5) t 
GR
GR
GS
[0.75 0 0 0.75 217.50016 298.24999] CT
0.149 GC
/Helvetica 14.667 F
GS
[1 0 0 1 0 0] CT
-3 14 moveto 
1 -1 scale
(t) t 
GR
GR
GS
[0.75 0 0 0.75 0 0] CT
0.149 GC
2 setlinecap
1 LJ
0.667 LW
N
73 374 M
73 31 L
S
GR
GS
[0.75 0 0 0.75 0 0] CT
0.149 GC
2 setlinecap
1 LJ
0.667 LW
N
507 374 M
507 31 L
S
GR
GS
[0.75 0 0 0.75 0 0] CT
0.149 GC
2 setlinecap
1 LJ
0.667 LW
N
73 374 M
77.34 374 L
S
GR
GS
[0.75 0 0 0.75 0 0] CT
0.149 GC
2 setlinecap
1 LJ
0.667 LW
N
73 339.7 M
77.34 339.7 L
S
GR
GS
[0.75 0 0 0.75 0 0] CT
0.149 GC
2 setlinecap
1 LJ
0.667 LW
N
73 305.4 M
77.34 305.4 L
S
GR
GS
[0.75 0 0 0.75 0 0] CT
0.149 GC
2 setlinecap
1 LJ
0.667 LW
N
73 271.1 M
77.34 271.1 L
S
GR
GS
[0.75 0 0 0.75 0 0] CT
0.149 GC
2 setlinecap
1 LJ
0.667 LW
N
73 236.8 M
77.34 236.8 L
S
GR
GS
[0.75 0 0 0.75 0 0] CT
0.149 GC
2 setlinecap
1 LJ
0.667 LW
N
73 202.5 M
77.34 202.5 L
S
GR
GS
[0.75 0 0 0.75 0 0] CT
0.149 GC
2 setlinecap
1 LJ
0.667 LW
N
73 168.2 M
77.34 168.2 L
S
GR
GS
[0.75 0 0 0.75 0 0] CT
0.149 GC
2 setlinecap
1 LJ
0.667 LW
N
73 133.9 M
77.34 133.9 L
S
GR
GS
[0.75 0 0 0.75 0 0] CT
0.149 GC
2 setlinecap
1 LJ
0.667 LW
N
73 99.6 M
77.34 99.6 L
S
GR
GS
[0.75 0 0 0.75 0 0] CT
0.149 GC
2 setlinecap
1 LJ
0.667 LW
N
73 65.3 M
77.34 65.3 L
S
GR
GS
[0.75 0 0 0.75 0 0] CT
0.149 GC
2 setlinecap
1 LJ
0.667 LW
N
73 31 M
77.34 31 L
S
GR
GS
[0.75 0 0 0.75 0 0] CT
0.149 GC
2 setlinecap
1 LJ
0.667 LW
N
507 374 M
502.66 374 L
S
GR
GS
[0.75 0 0 0.75 0 0] CT
0.149 GC
2 setlinecap
1 LJ
0.667 LW
N
507 339.7 M
502.66 339.7 L
S
GR
GS
[0.75 0 0 0.75 0 0] CT
0.149 GC
2 setlinecap
1 LJ
0.667 LW
N
507 305.4 M
502.66 305.4 L
S
GR
GS
[0.75 0 0 0.75 0 0] CT
0.149 GC
2 setlinecap
1 LJ
0.667 LW
N
507 271.1 M
502.66 271.1 L
S
GR
GS
[0.75 0 0 0.75 0 0] CT
0.149 GC
2 setlinecap
1 LJ
0.667 LW
N
507 236.8 M
502.66 236.8 L
S
GR
GS
[0.75 0 0 0.75 0 0] CT
0.149 GC
2 setlinecap
1 LJ
0.667 LW
N
507 202.5 M
502.66 202.5 L
S
GR
GS
[0.75 0 0 0.75 0 0] CT
0.149 GC
2 setlinecap
1 LJ
0.667 LW
N
507 168.2 M
502.66 168.2 L
S
GR
GS
[0.75 0 0 0.75 0 0] CT
0.149 GC
2 setlinecap
1 LJ
0.667 LW
N
507 133.9 M
502.66 133.9 L
S
GR
GS
[0.75 0 0 0.75 0 0] CT
0.149 GC
2 setlinecap
1 LJ
0.667 LW
N
507 99.6 M
502.66 99.6 L
S
GR
GS
[0.75 0 0 0.75 0 0] CT
0.149 GC
2 setlinecap
1 LJ
0.667 LW
N
507 65.3 M
502.66 65.3 L
S
GR
GS
[0.75 0 0 0.75 0 0] CT
0.149 GC
2 setlinecap
1 LJ
0.667 LW
N
507 31 M
502.66 31 L
S
GR
GS
[0.75 0 0 0.75 50.75 280.5] CT
0.149 GC
/Helvetica 13.333 F
GS
[1 0 0 1 0 0] CT
-9 4.5 moveto 
1 -1 scale
(0) t 
GR
GR
GS
[0.75 0 0 0.75 50.75 254.77501] CT
0.149 GC
/Helvetica 13.333 F
GS
[1 0 0 1 0 0] CT
-22 4.5 moveto 
1 -1 scale
(0.1) t 
GR
GR
GS
[0.75 0 0 0.75 50.75 229.05] CT
0.149 GC
/Helvetica 13.333 F
GS
[1 0 0 1 0 0] CT
-22 4.5 moveto 
1 -1 scale
(0.2) t 
GR
GR
GS
[0.75 0 0 0.75 50.75 203.325] CT
0.149 GC
/Helvetica 13.333 F
GS
[1 0 0 1 0 0] CT
-22 4.5 moveto 
1 -1 scale
(0.3) t 
GR
GR
GS
[0.75 0 0 0.75 50.75 177.6] CT
0.149 GC
/Helvetica 13.333 F
GS
[1 0 0 1 0 0] CT
-22 4.5 moveto 
1 -1 scale
(0.4) t 
GR
GR
GS
[0.75 0 0 0.75 50.75 151.875] CT
0.149 GC
/Helvetica 13.333 F
GS
[1 0 0 1 0 0] CT
-22 4.5 moveto 
1 -1 scale
(0.5) t 
GR
GR
GS
[0.75 0 0 0.75 50.75 126.15] CT
0.149 GC
/Helvetica 13.333 F
GS
[1 0 0 1 0 0] CT
-22 4.5 moveto 
1 -1 scale
(0.6) t 
GR
GR
GS
[0.75 0 0 0.75 50.75 100.42501] CT
0.149 GC
/Helvetica 13.333 F
GS
[1 0 0 1 0 0] CT
-22 4.5 moveto 
1 -1 scale
(0.7) t 
GR
GR
GS
[0.75 0 0 0.75 50.75 74.7] CT
0.149 GC
/Helvetica 13.333 F
GS
[1 0 0 1 0 0] CT
-22 4.5 moveto 
1 -1 scale
(0.8) t 
GR
GR
GS
[0.75 0 0 0.75 50.75 48.97501] CT
0.149 GC
/Helvetica 13.333 F
GS
[1 0 0 1 0 0] CT
-22 4.5 moveto 
1 -1 scale
(0.9) t 
GR
GR
GS
[0.75 0 0 0.75 50.75 23.25] CT
0.149 GC
/Helvetica 13.333 F
GS
[1 0 0 1 0 0] CT
-9 4.5 moveto 
1 -1 scale
(1) t 
GR
GR
GS
[0 -0.75 0.75 0 31.25 151.87487] CT
0.149 GC
/Helvetica 14.667 F
GS
[1 0 0 1 0 0] CT
-5 -4 moveto 
1 -1 scale
(E) t 
GR
GR
GS
[0.75 0 0 0.75 0 0] CT
1 LJ
2.667 LW
N
73 374 M
73.002 373.983 L
73.004 373.966 L
73.006 373.948 L
73.008 373.931 L
73.019 373.845 L
73.029 373.759 L
73.039 373.673 L
73.05 373.587 L
73.101 373.158 L
73.153 372.73 L
73.205 372.303 L
73.257 371.877 L
73.516 369.763 L
73.775 367.675 L
74.034 365.613 L
74.292 363.578 L
75.377 355.319 L
76.462 347.484 L
77.547 340.051 L
78.632 332.998 L
79.717 326.308 L
80.802 319.96 L
81.887 313.938 L
82.972 308.224 L
84.057 302.804 L
85.142 297.661 L
86.227 292.782 L
87.312 288.153 L
88.397 282.979 L
89.482 279.829 L
90.567 280.752 L
91.652 283.813 L
92.585 285.905 L
93.517 287.905 L
94.45 289.816 L
95.382 291.643 L
96.467 293.667 L
97.552 295.588 L
98.637 297.41 L
99.722 299.138 L
100.807 300.778 L
101.892 302.334 L
102.977 303.81 L
104.062 305.211 L
105.147 306.539 L
106.232 307.8 L
107.317 308.996 L
108.402 310.13 L
109.487 311.207 L
110.572 312.228 L
111.657 313.197 L
112.742 314.116 L
113.827 314.988 L
114.912 315.815 L
115.997 316.6 L
117.082 317.345 L
118.167 318.052 L
119.252 318.722 L
120.337 319.358 L
121.422 319.961 L
122.507 320.533 L
123.592 321.076 L
124.677 321.592 L
125.762 322.08 L
126.847 322.544 L
127.932 322.984 L
129.017 323.401 L
130.102 323.797 L
131.187 324.173 L
132.272 324.53 L
133.357 324.868 L
134.442 325.189 L
135.527 325.493 L
136.612 325.782 L
137.697 326.056 L
138.782 326.316 L
139.867 326.562 L
140.952 326.796 L
142.037 327.018 L
143.122 327.229 L
144.207 327.428 L
145.292 327.618 L
146.377 327.798 L
147.462 327.968 L
148.547 328.13 L
149.632 328.284 L
150.717 328.429 L
151.802 328.568 L
152.887 328.699 L
153.972 328.823 L
155.057 328.941 L
156.142 329.053 L
157.227 329.159 L
158.312 329.26 L
159.397 329.356 L
160.482 329.446 L
161.567 329.532 L
162.652 329.614 L
163.737 329.692 L
164.822 329.765 L
165.907 329.835 L
166.992 329.901 L
168.077 329.964 L
169.162 330.023 L
170.247 330.08 L
171.332 330.133 L
172.417 330.184 L
173.502 330.232 L
174.587 330.278 L
175.672 330.322 L
176.757 330.363 L
177.842 330.402 L
178.927 330.439 L
180.012 330.474 L
181.097 330.507 L
182.182 330.539 L
183.267 330.569 L
184.352 330.598 L
185.437 330.625 L
186.522 330.65 L
187.607 330.675 L
188.692 330.698 L
189.777 330.72 L
190.862 330.74 L
191.947 330.76 L
193.032 330.779 L
194.117 330.797 L
195.202 330.813 L
196.287 330.829 L
197.372 330.845 L
198.457 330.859 L
199.542 330.873 L
200.627 330.886 L
201.712 330.898 L
202.797 330.909 L
203.882 330.921 L
204.967 330.931 L
206.052 330.941 L
207.137 330.95 L
208.222 330.959 L
209.307 330.968 L
210.392 330.976 L
211.477 330.984 L
212.562 330.991 L
213.647 330.998 L
214.732 331.004 L
215.817 331.01 L
216.902 331.016 L
217.987 331.022 L
219.072 331.027 L
220.157 331.032 L
221.242 331.037 L
222.327 331.041 L
223.412 331.046 L
224.497 331.05 L
225.582 331.054 L
226.667 331.057 L
227.752 331.061 L
228.837 331.064 L
229.922 331.067 L
231.007 331.07 L
232.092 331.073 L
233.177 331.076 L
234.262 331.078 L
235.347 331.081 L
236.432 331.083 L
237.517 331.085 L
238.602 331.087 L
239.687 331.089 L
240.772 331.091 L
241.857 331.093 L
242.942 331.094 L
244.027 331.096 L
245.112 331.097 L
246.197 331.099 L
247.282 331.1 L
248.367 331.101 L
249.452 331.103 L
250.537 331.104 L
251.622 331.105 L
252.707 331.106 L
253.792 331.107 L
254.877 331.108 L
255.962 331.109 L
257.047 331.109 L
258.132 331.11 L
259.217 331.111 L
260.302 331.112 L
261.387 331.112 L
262.472 331.113 L
263.557 331.114 L
264.642 331.114 L
265.727 331.115 L
266.812 331.115 L
267.897 331.116 L
268.982 331.116 L
270.067 331.117 L
271.152 331.117 L
272.237 331.118 L
273.322 331.118 L
274.407 331.118 L
275.492 331.119 L
276.577 331.119 L
277.662 331.119 L
278.747 331.12 L
279.832 331.12 L
280.917 331.12 L
282.002 331.12 L
283.087 331.121 L
284.172 331.121 L
285.257 331.121 L
286.342 331.121 L
287.427 331.121 L
288.512 331.122 L
289.597 331.122 L
290.682 331.122 L
291.767 331.122 L
292.852 331.122 L
293.937 331.122 L
295.022 331.123 L
296.107 331.123 L
297.192 331.123 L
298.277 331.123 L
299.362 331.123 L
300.447 331.123 L
301.532 331.123 L
302.617 331.123 L
303.702 331.123 L
304.787 331.123 L
305.872 331.124 L
306.957 331.124 L
308.042 331.124 L
309.127 331.124 L
310.212 331.124 L
311.297 331.124 L
312.382 331.124 L
313.467 331.124 L
314.552 331.124 L
315.637 331.124 L
316.722 331.124 L
317.807 331.124 L
318.892 331.124 L
319.977 331.124 L
321.062 331.124 L
322.147 331.124 L
323.232 331.124 L
324.317 331.124 L
325.402 331.124 L
326.487 331.124 L
327.572 331.124 L
328.657 331.125 L
329.742 331.125 L
330.827 331.125 L
331.912 331.125 L
332.997 331.125 L
334.082 331.125 L
335.167 331.125 L
336.252 331.125 L
337.337 331.125 L
338.422 331.125 L
339.507 331.125 L
340.592 331.125 L
341.677 331.125 L
342.762 331.125 L
343.847 331.125 L
344.932 331.125 L
346.017 331.125 L
347.102 331.125 L
348.187 331.125 L
349.272 331.125 L
350.357 331.125 L
351.442 331.125 L
352.527 331.125 L
353.612 331.125 L
354.697 331.125 L
355.782 331.125 L
356.867 331.125 L
357.952 331.125 L
359.037 331.125 L
360.122 331.125 L
361.207 331.125 L
362.292 331.125 L
363.377 331.125 L
364.462 331.125 L
365.547 331.125 L
366.632 331.125 L
367.717 331.125 L
368.802 331.125 L
369.887 331.125 L
370.972 331.125 L
372.057 331.125 L
373.142 331.125 L
374.227 331.125 L
375.312 331.125 L
376.397 331.125 L
377.482 331.125 L
378.567 331.125 L
379.652 331.125 L
380.737 331.125 L
381.822 331.125 L
382.907 331.125 L
383.992 331.125 L
385.077 331.125 L
386.162 331.125 L
387.247 331.125 L
388.332 331.125 L
389.417 331.125 L
390.502 331.125 L
391.587 331.125 L
392.672 331.125 L
393.757 331.125 L
394.842 331.125 L
395.927 331.125 L
397.012 331.125 L
398.097 331.125 L
399.182 331.125 L
400.267 331.125 L
401.352 331.125 L
402.437 331.125 L
403.522 331.125 L
404.607 331.125 L
405.692 331.125 L
406.777 331.125 L
407.862 331.125 L
408.947 331.125 L
410.032 331.125 L
411.117 331.125 L
412.202 331.125 L
413.287 331.125 L
414.372 331.125 L
415.457 331.125 L
416.542 331.125 L
417.627 331.125 L
418.712 331.125 L
419.797 331.125 L
420.882 331.125 L
421.967 331.125 L
423.052 331.125 L
424.137 331.125 L
425.222 331.125 L
426.307 331.125 L
427.392 331.125 L
428.477 331.125 L
429.562 331.125 L
430.647 331.125 L
431.732 331.125 L
432.817 331.125 L
433.902 331.125 L
434.987 331.125 L
436.072 331.125 L
437.157 331.125 L
438.242 331.125 L
439.327 331.125 L
440.412 331.125 L
441.497 331.125 L
442.582 331.125 L
443.667 331.125 L
444.752 331.125 L
445.837 331.125 L
446.922 331.125 L
448.007 331.125 L
449.092 331.125 L
450.177 331.125 L
451.262 331.125 L
452.347 331.125 L
453.432 331.125 L
454.517 331.125 L
455.602 331.125 L
456.687 331.125 L
457.772 331.125 L
458.857 331.125 L
459.942 331.125 L
461.027 331.125 L
462.112 331.125 L
463.197 331.125 L
464.282 331.125 L
465.367 331.125 L
466.452 331.125 L
467.537 331.125 L
468.622 331.125 L
469.707 331.125 L
470.792 331.125 L
471.877 331.125 L
472.962 331.125 L
474.047 331.125 L
475.132 331.125 L
476.217 331.125 L
477.302 331.125 L
478.387 331.125 L
479.472 331.125 L
480.557 331.125 L
481.642 331.125 L
482.727 331.125 L
483.812 331.125 L
484.897 331.125 L
485.982 331.125 L
487.067 331.125 L
488.152 331.125 L
489.237 331.125 L
490.322 331.125 L
491.407 331.125 L
492.492 331.125 L
493.577 331.125 L
494.662 331.125 L
495.747 331.125 L
496.832 331.125 L
497.917 331.125 L
499.002 331.125 L
500.087 331.125 L
501.172 331.125 L
502.257 331.125 L
503.342 331.125 L
504.257 331.125 L
505.171 331.125 L
506.086 331.125 L
507 331.125 L
S
GR
GS
[0.75 0 0 0.75 0 0] CT
1 0 0 RC
1 LJ
2.667 LW
N
73 374 M
73.002 373.983 L
73.004 373.966 L
73.006 373.948 L
73.008 373.931 L
73.019 373.845 L
73.029 373.759 L
73.039 373.673 L
73.05 373.587 L
73.101 373.158 L
73.153 372.73 L
73.205 372.303 L
73.257 371.877 L
73.516 369.763 L
73.775 367.675 L
74.034 365.613 L
74.292 363.578 L
75.377 355.319 L
76.462 347.484 L
77.547 340.051 L
78.632 332.998 L
79.717 326.308 L
80.802 319.96 L
81.887 313.938 L
82.972 308.224 L
84.057 302.804 L
85.142 297.661 L
86.227 292.782 L
87.312 288.153 L
88.397 283.24 L
89.482 279.751 L
90.567 279.049 L
91.652 279.84 L
92.672 280.246 L
93.692 280.632 L
94.712 281 L
95.732 281.35 L
96.817 281.703 L
97.902 282.039 L
98.987 282.357 L
100.072 282.66 L
101.157 282.946 L
102.242 283.218 L
103.327 283.476 L
104.412 283.721 L
105.497 283.953 L
106.582 284.173 L
107.667 284.382 L
108.752 284.581 L
109.837 284.769 L
110.922 284.947 L
112.007 285.117 L
113.092 285.277 L
114.177 285.43 L
115.262 285.574 L
116.347 285.711 L
117.432 285.842 L
118.517 285.965 L
119.602 286.082 L
120.687 286.193 L
121.772 286.299 L
122.857 286.399 L
123.942 286.494 L
125.027 286.584 L
126.112 286.669 L
127.197 286.75 L
128.282 286.827 L
129.367 286.9 L
130.452 286.969 L
131.537 287.035 L
132.622 287.097 L
133.707 287.156 L
134.792 287.212 L
135.877 287.266 L
136.962 287.316 L
138.047 287.364 L
139.132 287.409 L
140.217 287.453 L
141.302 287.493 L
142.387 287.532 L
143.472 287.569 L
144.557 287.604 L
145.642 287.637 L
146.727 287.668 L
147.812 287.698 L
148.897 287.727 L
149.982 287.753 L
151.067 287.779 L
152.152 287.803 L
153.237 287.826 L
154.322 287.848 L
155.407 287.868 L
156.492 287.888 L
157.577 287.906 L
158.662 287.924 L
159.747 287.941 L
160.832 287.957 L
161.917 287.972 L
163.002 287.986 L
164.087 287.999 L
165.172 288.012 L
166.257 288.025 L
167.342 288.036 L
168.427 288.047 L
169.512 288.057 L
170.597 288.067 L
171.682 288.077 L
172.767 288.086 L
173.852 288.094 L
174.937 288.102 L
176.022 288.11 L
177.107 288.117 L
178.192 288.124 L
179.277 288.13 L
180.362 288.136 L
181.447 288.142 L
182.532 288.148 L
183.617 288.153 L
184.702 288.158 L
185.787 288.163 L
186.872 288.167 L
187.957 288.171 L
189.042 288.175 L
190.127 288.179 L
191.212 288.183 L
192.297 288.186 L
193.382 288.19 L
194.467 288.193 L
195.552 288.196 L
196.637 288.198 L
197.722 288.201 L
198.807 288.204 L
199.892 288.206 L
200.977 288.208 L
202.062 288.21 L
203.147 288.212 L
204.232 288.214 L
205.317 288.216 L
206.402 288.218 L
207.487 288.219 L
208.572 288.221 L
209.657 288.223 L
210.742 288.224 L
211.827 288.225 L
212.912 288.227 L
213.997 288.228 L
215.082 288.229 L
216.167 288.23 L
217.252 288.231 L
218.337 288.232 L
219.422 288.233 L
220.507 288.234 L
221.592 288.235 L
222.677 288.235 L
223.762 288.236 L
224.847 288.237 L
225.932 288.238 L
227.017 288.238 L
228.102 288.239 L
229.187 288.239 L
230.272 288.24 L
231.357 288.24 L
232.442 288.241 L
233.527 288.241 L
234.612 288.242 L
235.697 288.242 L
236.782 288.243 L
237.867 288.243 L
238.952 288.243 L
240.037 288.244 L
241.122 288.244 L
242.207 288.244 L
243.292 288.245 L
244.377 288.245 L
245.462 288.245 L
246.547 288.245 L
247.632 288.246 L
248.717 288.246 L
249.802 288.246 L
250.887 288.246 L
251.972 288.246 L
253.057 288.247 L
254.142 288.247 L
255.227 288.247 L
256.312 288.247 L
257.397 288.247 L
258.482 288.247 L
259.567 288.248 L
260.652 288.248 L
261.737 288.248 L
262.822 288.248 L
263.907 288.248 L
264.992 288.248 L
266.077 288.248 L
267.162 288.248 L
268.247 288.248 L
269.332 288.248 L
270.417 288.249 L
271.502 288.249 L
272.587 288.249 L
273.672 288.249 L
274.757 288.249 L
275.842 288.249 L
276.927 288.249 L
278.012 288.249 L
279.097 288.249 L
280.182 288.249 L
281.267 288.249 L
282.352 288.249 L
283.437 288.249 L
284.522 288.249 L
285.607 288.249 L
286.692 288.249 L
287.777 288.249 L
288.862 288.249 L
289.947 288.249 L
291.032 288.249 L
292.117 288.25 L
293.202 288.25 L
294.287 288.25 L
295.372 288.25 L
296.457 288.25 L
297.542 288.25 L
298.627 288.25 L
299.712 288.25 L
300.797 288.25 L
301.882 288.25 L
302.967 288.25 L
304.052 288.25 L
305.137 288.25 L
306.222 288.25 L
307.307 288.25 L
308.392 288.25 L
309.477 288.25 L
310.562 288.25 L
311.647 288.25 L
312.732 288.25 L
313.817 288.25 L
314.902 288.25 L
315.987 288.25 L
317.072 288.25 L
318.157 288.25 L
319.242 288.25 L
320.327 288.25 L
321.412 288.25 L
322.497 288.25 L
323.582 288.25 L
324.667 288.25 L
325.752 288.25 L
326.837 288.25 L
327.922 288.25 L
329.007 288.25 L
330.092 288.25 L
331.177 288.25 L
332.262 288.25 L
333.347 288.25 L
334.432 288.25 L
335.517 288.25 L
336.602 288.25 L
337.687 288.25 L
338.772 288.25 L
339.857 288.25 L
340.942 288.25 L
342.027 288.25 L
343.112 288.25 L
344.197 288.25 L
345.282 288.25 L
346.367 288.25 L
347.452 288.25 L
348.537 288.25 L
349.622 288.25 L
350.707 288.25 L
351.792 288.25 L
352.877 288.25 L
353.962 288.25 L
355.047 288.25 L
356.132 288.25 L
357.217 288.25 L
358.302 288.25 L
359.387 288.25 L
360.472 288.25 L
361.557 288.25 L
362.642 288.25 L
363.727 288.25 L
364.812 288.25 L
365.897 288.25 L
366.982 288.25 L
368.067 288.25 L
369.152 288.25 L
370.237 288.25 L
371.322 288.25 L
372.407 288.25 L
373.492 288.25 L
374.577 288.25 L
375.662 288.25 L
376.747 288.25 L
377.832 288.25 L
378.917 288.25 L
380.002 288.25 L
381.087 288.25 L
382.172 288.25 L
383.257 288.25 L
384.342 288.25 L
385.427 288.25 L
386.512 288.25 L
387.597 288.25 L
388.682 288.25 L
389.767 288.25 L
390.852 288.25 L
391.937 288.25 L
393.022 288.25 L
394.107 288.25 L
395.192 288.25 L
396.277 288.25 L
397.362 288.25 L
398.447 288.25 L
399.532 288.25 L
400.617 288.25 L
401.702 288.25 L
402.787 288.25 L
403.872 288.25 L
404.957 288.25 L
406.042 288.25 L
407.127 288.25 L
408.212 288.25 L
409.297 288.25 L
410.382 288.25 L
411.467 288.25 L
412.552 288.25 L
413.637 288.25 L
414.722 288.25 L
415.807 288.25 L
416.892 288.25 L
417.977 288.25 L
419.062 288.25 L
420.147 288.25 L
421.232 288.25 L
422.317 288.25 L
423.402 288.25 L
424.487 288.25 L
425.572 288.25 L
426.657 288.25 L
427.742 288.25 L
428.827 288.25 L
429.912 288.25 L
430.997 288.25 L
432.082 288.25 L
433.167 288.25 L
434.252 288.25 L
435.337 288.25 L
436.422 288.25 L
437.507 288.25 L
438.592 288.25 L
439.677 288.25 L
440.762 288.25 L
441.847 288.25 L
442.932 288.25 L
444.017 288.25 L
445.102 288.25 L
446.187 288.25 L
447.272 288.25 L
448.357 288.25 L
449.442 288.25 L
450.527 288.25 L
451.612 288.25 L
452.697 288.25 L
453.782 288.25 L
454.867 288.25 L
455.952 288.25 L
457.037 288.25 L
458.122 288.25 L
459.207 288.25 L
460.292 288.25 L
461.377 288.25 L
462.462 288.25 L
463.547 288.25 L
464.632 288.25 L
465.717 288.25 L
466.802 288.25 L
467.887 288.25 L
468.972 288.25 L
470.057 288.25 L
471.142 288.25 L
472.227 288.25 L
473.312 288.25 L
474.397 288.25 L
475.482 288.25 L
476.567 288.25 L
477.652 288.25 L
478.737 288.25 L
479.822 288.25 L
480.907 288.25 L
481.992 288.25 L
483.077 288.25 L
484.162 288.25 L
485.247 288.25 L
486.332 288.25 L
487.417 288.25 L
488.502 288.25 L
489.587 288.25 L
490.672 288.25 L
491.757 288.25 L
492.842 288.25 L
493.927 288.25 L
495.012 288.25 L
496.097 288.25 L
497.182 288.25 L
498.267 288.25 L
499.352 288.25 L
500.437 288.25 L
501.522 288.25 L
502.607 288.25 L
503.692 288.25 L
504.519 288.25 L
505.346 288.25 L
506.173 288.25 L
507 288.25 L
S
GR
GS
[0.75 0 0 0.75 0 0] CT
0 1 0 RC
1 LJ
2.667 LW
N
73 374 M
73.002 373.983 L
73.004 373.966 L
73.006 373.948 L
73.008 373.931 L
73.019 373.845 L
73.029 373.759 L
73.039 373.673 L
73.05 373.587 L
73.101 373.158 L
73.153 372.73 L
73.205 372.303 L
73.257 371.877 L
73.516 369.763 L
73.775 367.675 L
74.034 365.613 L
74.292 363.578 L
75.377 355.319 L
76.462 347.484 L
77.547 340.051 L
78.632 332.998 L
79.717 326.308 L
80.802 319.96 L
81.887 313.938 L
82.972 308.224 L
84.057 302.804 L
85.142 297.661 L
86.227 292.782 L
87.312 288.153 L
88.397 283.762 L
89.482 279.595 L
90.567 275.643 L
91.652 271.893 L
92.737 268.335 L
93.822 264.959 L
94.907 261.757 L
95.992 258.719 L
97.077 255.837 L
98.162 253.102 L
99.247 250.508 L
100.332 248.046 L
101.417 245.711 L
102.502 243.496 L
103.587 241.394 L
104.672 239.4 L
105.757 237.508 L
106.842 235.713 L
107.927 234.01 L
109.012 232.395 L
110.097 230.862 L
111.182 229.408 L
112.267 228.028 L
113.352 226.719 L
114.437 225.478 L
115.522 224.299 L
116.607 223.182 L
117.692 222.121 L
118.777 221.115 L
119.862 220.161 L
120.947 219.256 L
122.032 218.396 L
123.117 217.581 L
124.202 216.808 L
125.287 216.075 L
126.372 215.379 L
127.457 214.718 L
128.542 214.092 L
129.627 213.498 L
130.712 212.934 L
131.797 212.399 L
132.882 211.891 L
133.967 211.41 L
135.052 210.953 L
136.137 210.52 L
137.222 210.108 L
138.307 209.718 L
139.393 209.348 L
140.477 208.997 L
141.563 208.664 L
142.647 208.348 L
143.732 208.048 L
144.817 207.764 L
145.902 207.494 L
146.987 207.238 L
148.072 206.995 L
149.157 206.764 L
150.242 206.546 L
151.327 206.338 L
152.412 206.142 L
153.497 205.955 L
154.582 205.778 L
155.667 205.61 L
156.752 205.45 L
157.837 205.299 L
158.922 205.155 L
160.007 205.019 L
161.092 204.89 L
162.177 204.768 L
163.262 204.651 L
164.347 204.541 L
165.432 204.436 L
166.517 204.337 L
167.602 204.243 L
168.687 204.154 L
169.772 204.069 L
170.857 203.988 L
171.942 203.912 L
173.027 203.84 L
174.112 203.771 L
175.197 203.706 L
176.283 203.644 L
177.367 203.585 L
178.452 203.53 L
179.537 203.477 L
180.622 203.427 L
181.707 203.379 L
182.792 203.334 L
183.877 203.291 L
184.962 203.251 L
186.047 203.212 L
187.132 203.176 L
188.217 203.141 L
189.302 203.108 L
190.387 203.077 L
191.472 203.048 L
192.557 203.019 L
193.642 202.993 L
194.727 202.968 L
195.812 202.944 L
196.897 202.921 L
197.982 202.899 L
199.067 202.879 L
200.152 202.859 L
201.237 202.841 L
202.322 202.823 L
203.408 202.807 L
204.492 202.791 L
205.577 202.776 L
206.662 202.762 L
207.747 202.749 L
208.832 202.736 L
209.917 202.724 L
211.002 202.712 L
212.087 202.701 L
213.172 202.691 L
214.257 202.681 L
215.342 202.672 L
216.427 202.663 L
217.512 202.655 L
218.597 202.647 L
219.682 202.639 L
220.767 202.632 L
221.852 202.625 L
222.937 202.619 L
224.022 202.613 L
225.107 202.607 L
226.192 202.602 L
227.277 202.596 L
228.362 202.591 L
229.447 202.587 L
230.533 202.582 L
231.617 202.578 L
232.702 202.574 L
233.787 202.57 L
234.872 202.567 L
235.957 202.563 L
237.042 202.56 L
238.127 202.557 L
239.212 202.554 L
240.297 202.551 L
241.382 202.549 L
242.467 202.546 L
243.552 202.544 L
244.637 202.542 L
245.722 202.539 L
246.807 202.537 L
247.892 202.535 L
248.977 202.534 L
250.063 202.532 L
251.148 202.53 L
252.232 202.529 L
253.317 202.527 L
254.402 202.526 L
255.488 202.525 L
256.573 202.523 L
257.657 202.522 L
258.742 202.521 L
259.827 202.52 L
260.913 202.519 L
261.997 202.518 L
263.082 202.517 L
264.167 202.516 L
265.253 202.515 L
266.337 202.514 L
267.423 202.514 L
268.507 202.513 L
269.592 202.512 L
270.677 202.512 L
271.763 202.511 L
272.848 202.511 L
273.932 202.51 L
275.017 202.51 L
276.103 202.509 L
277.188 202.509 L
278.272 202.508 L
279.357 202.508 L
280.442 202.507 L
281.527 202.507 L
282.612 202.507 L
283.698 202.506 L
284.782 202.506 L
285.867 202.506 L
286.952 202.505 L
288.038 202.505 L
289.122 202.505 L
290.207 202.505 L
291.292 202.504 L
292.378 202.504 L
293.462 202.504 L
294.548 202.504 L
295.632 202.503 L
296.717 202.503 L
297.802 202.503 L
298.888 202.503 L
299.973 202.503 L
301.057 202.503 L
302.142 202.503 L
303.228 202.502 L
304.313 202.502 L
305.397 202.502 L
306.482 202.502 L
307.567 202.502 L
308.652 202.502 L
309.737 202.502 L
310.823 202.502 L
311.907 202.502 L
312.992 202.502 L
314.077 202.501 L
315.163 202.501 L
316.247 202.501 L
317.332 202.501 L
318.417 202.501 L
319.503 202.501 L
320.587 202.501 L
321.673 202.501 L
322.757 202.501 L
323.842 202.501 L
324.927 202.501 L
326.013 202.501 L
327.098 202.501 L
328.182 202.501 L
329.267 202.501 L
330.353 202.501 L
331.438 202.501 L
332.522 202.501 L
333.607 202.501 L
334.692 202.501 L
335.777 202.501 L
336.862 202.5 L
337.948 202.5 L
339.032 202.5 L
340.117 202.5 L
341.202 202.5 L
342.288 202.5 L
343.372 202.5 L
344.457 202.5 L
345.542 202.5 L
346.628 202.5 L
347.712 202.5 L
348.798 202.5 L
349.882 202.5 L
350.967 202.5 L
352.052 202.5 L
353.138 202.5 L
354.223 202.5 L
355.307 202.5 L
356.392 202.5 L
357.478 202.5 L
358.563 202.5 L
359.647 202.5 L
360.732 202.5 L
361.817 202.5 L
362.902 202.5 L
363.987 202.5 L
365.073 202.5 L
366.157 202.5 L
367.242 202.5 L
368.327 202.5 L
369.413 202.5 L
370.497 202.5 L
371.582 202.5 L
372.667 202.5 L
373.753 202.5 L
374.837 202.5 L
375.923 202.5 L
377.007 202.5 L
378.092 202.5 L
379.177 202.5 L
380.263 202.5 L
381.348 202.5 L
382.432 202.5 L
383.517 202.5 L
384.603 202.5 L
385.688 202.5 L
386.772 202.5 L
387.857 202.5 L
388.942 202.5 L
390.027 202.5 L
391.112 202.5 L
392.198 202.5 L
393.282 202.5 L
394.367 202.5 L
395.452 202.5 L
396.538 202.5 L
397.622 202.5 L
398.707 202.5 L
399.792 202.5 L
400.878 202.5 L
401.962 202.5 L
403.048 202.5 L
404.132 202.5 L
405.217 202.5 L
406.302 202.5 L
407.388 202.5 L
408.473 202.5 L
409.557 202.5 L
410.642 202.5 L
411.728 202.5 L
412.813 202.5 L
413.897 202.5 L
414.982 202.5 L
416.067 202.5 L
417.152 202.5 L
418.237 202.5 L
419.323 202.5 L
420.407 202.5 L
421.493 202.5 L
422.577 202.5 L
423.662 202.5 L
424.747 202.5 L
425.832 202.5 L
426.918 202.5 L
428.003 202.5 L
429.087 202.5 L
430.173 202.5 L
431.257 202.5 L
432.342 202.5 L
433.427 202.5 L
434.512 202.5 L
435.598 202.5 L
436.682 202.5 L
437.768 202.5 L
438.853 202.5 L
439.937 202.5 L
441.022 202.5 L
442.107 202.5 L
443.193 202.5 L
444.277 202.5 L
445.362 202.5 L
446.448 202.5 L
447.532 202.5 L
448.618 202.5 L
449.702 202.5 L
450.787 202.5 L
451.872 202.5 L
452.957 202.5 L
454.043 202.5 L
455.128 202.5 L
456.212 202.5 L
457.298 202.5 L
458.382 202.5 L
459.467 202.5 L
460.552 202.5 L
461.637 202.5 L
462.723 202.5 L
463.807 202.5 L
464.893 202.5 L
465.978 202.5 L
467.062 202.5 L
468.147 202.5 L
469.232 202.5 L
470.318 202.5 L
471.402 202.5 L
472.487 202.5 L
473.573 202.5 L
474.657 202.5 L
475.743 202.5 L
476.827 202.5 L
477.912 202.5 L
478.997 202.5 L
480.082 202.5 L
481.168 202.5 L
482.253 202.5 L
483.337 202.5 L
484.423 202.5 L
485.507 202.5 L
486.592 202.5 L
487.677 202.5 L
488.762 202.5 L
489.848 202.5 L
490.932 202.5 L
492.018 202.5 L
493.103 202.5 L
494.187 202.5 L
495.272 202.5 L
496.357 202.5 L
497.443 202.5 L
498.527 202.5 L
499.612 202.5 L
500.698 202.5 L
501.782 202.5 L
502.868 202.5 L
503.952 202.5 L
504.714 202.5 L
505.476 202.5 L
506.238 202.5 L
507 202.5 L
S
GR
GS
[0.75 0 0 0.75 0 0] CT
0 0 1 RC
1 LJ
2.667 LW
N
73 374 M
73.002 373.983 L
73.004 373.966 L
73.006 373.948 L
73.008 373.931 L
73.019 373.845 L
73.029 373.759 L
73.039 373.673 L
73.05 373.587 L
73.101 373.158 L
73.153 372.73 L
73.205 372.303 L
73.257 371.877 L
73.516 369.763 L
73.775 367.675 L
74.034 365.613 L
74.292 363.578 L
75.377 355.319 L
76.462 347.484 L
77.547 340.051 L
78.632 332.998 L
79.717 326.308 L
80.802 319.96 L
81.887 313.938 L
82.972 308.224 L
84.057 302.804 L
85.142 297.661 L
86.227 292.782 L
87.312 288.153 L
88.397 284.284 L
89.482 279.44 L
90.567 272.237 L
91.652 263.946 L
92.705 256.619 L
93.757 249.658 L
94.81 243.043 L
95.862 236.757 L
96.947 230.604 L
98.032 224.767 L
99.117 219.228 L
100.202 213.974 L
101.287 208.99 L
102.372 204.26 L
103.457 199.774 L
104.542 195.517 L
105.627 191.479 L
106.712 187.647 L
107.797 184.012 L
108.882 180.564 L
109.967 177.292 L
111.052 174.188 L
112.137 171.243 L
113.222 168.449 L
114.307 165.799 L
115.392 163.284 L
116.477 160.898 L
117.562 158.635 L
118.647 156.487 L
119.732 154.45 L
120.817 152.517 L
121.902 150.683 L
122.987 148.943 L
124.072 147.293 L
125.157 145.727 L
126.242 144.241 L
127.327 142.832 L
128.412 141.494 L
129.497 140.226 L
130.582 139.022 L
131.667 137.88 L
132.752 136.797 L
133.837 135.769 L
134.922 134.794 L
136.007 133.869 L
137.092 132.991 L
138.177 132.158 L
139.262 131.368 L
140.347 130.619 L
141.432 129.908 L
142.517 129.233 L
143.602 128.593 L
144.687 127.986 L
145.772 127.41 L
146.857 126.863 L
147.942 126.345 L
149.027 125.853 L
150.112 125.386 L
151.197 124.943 L
152.282 124.523 L
153.367 124.125 L
154.452 123.747 L
155.537 123.388 L
156.622 123.048 L
157.707 122.725 L
158.792 122.418 L
159.877 122.128 L
160.962 121.852 L
162.047 121.591 L
163.132 121.342 L
164.217 121.107 L
165.302 120.884 L
166.387 120.672 L
167.472 120.471 L
168.557 120.28 L
169.642 120.099 L
170.727 119.927 L
171.812 119.764 L
172.897 119.61 L
173.982 119.463 L
175.067 119.324 L
176.152 119.192 L
177.237 119.067 L
178.322 118.948 L
179.407 118.835 L
180.492 118.728 L
181.577 118.627 L
182.662 118.531 L
183.747 118.439 L
184.832 118.353 L
185.917 118.271 L
187.002 118.193 L
188.087 118.119 L
189.172 118.049 L
190.257 117.982 L
191.342 117.919 L
192.427 117.859 L
193.512 117.802 L
194.597 117.748 L
195.682 117.697 L
196.767 117.648 L
197.852 117.602 L
198.937 117.559 L
200.022 117.517 L
201.107 117.478 L
202.192 117.44 L
203.277 117.405 L
204.362 117.372 L
205.447 117.34 L
206.532 117.309 L
207.617 117.281 L
208.702 117.254 L
209.787 117.228 L
210.872 117.203 L
211.957 117.18 L
213.042 117.158 L
214.127 117.137 L
215.212 117.117 L
216.297 117.098 L
217.382 117.08 L
218.467 117.064 L
219.552 117.047 L
220.637 117.032 L
221.722 117.018 L
222.807 117.004 L
223.892 116.991 L
224.977 116.979 L
226.062 116.967 L
227.147 116.956 L
228.232 116.945 L
229.317 116.935 L
230.402 116.926 L
231.487 116.917 L
232.572 116.908 L
233.657 116.9 L
234.742 116.892 L
235.827 116.885 L
236.912 116.878 L
237.997 116.872 L
239.082 116.865 L
240.167 116.859 L
241.252 116.854 L
242.337 116.849 L
243.422 116.843 L
244.507 116.839 L
245.592 116.834 L
246.677 116.83 L
247.762 116.826 L
248.847 116.822 L
249.932 116.818 L
251.017 116.815 L
252.102 116.811 L
253.187 116.808 L
254.272 116.805 L
255.357 116.802 L
256.442 116.8 L
257.527 116.797 L
258.612 116.795 L
259.697 116.792 L
260.782 116.79 L
261.867 116.788 L
262.952 116.786 L
264.037 116.784 L
265.122 116.783 L
266.207 116.781 L
267.292 116.779 L
268.377 116.778 L
269.462 116.776 L
270.547 116.775 L
271.632 116.774 L
272.717 116.773 L
273.802 116.771 L
274.887 116.77 L
275.972 116.769 L
277.057 116.768 L
278.142 116.767 L
279.227 116.766 L
280.312 116.766 L
281.397 116.765 L
282.482 116.764 L
283.567 116.763 L
284.652 116.763 L
285.737 116.762 L
286.822 116.761 L
287.907 116.761 L
288.992 116.76 L
290.077 116.76 L
291.162 116.759 L
292.247 116.759 L
293.332 116.758 L
294.417 116.758 L
295.502 116.757 L
296.587 116.757 L
297.672 116.757 L
298.757 116.756 L
299.842 116.756 L
300.927 116.756 L
302.012 116.755 L
303.097 116.755 L
304.182 116.755 L
305.267 116.755 L
306.352 116.754 L
307.437 116.754 L
308.522 116.754 L
309.607 116.754 L
310.692 116.754 L
311.777 116.753 L
312.862 116.753 L
313.947 116.753 L
315.032 116.753 L
316.117 116.753 L
317.202 116.753 L
318.287 116.752 L
319.372 116.752 L
320.457 116.752 L
321.542 116.752 L
322.627 116.752 L
323.712 116.752 L
324.797 116.752 L
325.882 116.752 L
326.967 116.752 L
328.052 116.752 L
329.137 116.751 L
330.222 116.751 L
331.307 116.751 L
332.392 116.751 L
333.477 116.751 L
334.562 116.751 L
335.647 116.751 L
336.732 116.751 L
337.817 116.751 L
338.902 116.751 L
339.987 116.751 L
341.072 116.751 L
342.157 116.751 L
343.242 116.751 L
344.327 116.751 L
345.412 116.751 L
346.497 116.751 L
347.582 116.751 L
348.667 116.751 L
349.752 116.751 L
350.837 116.751 L
351.922 116.75 L
353.007 116.75 L
354.092 116.75 L
355.177 116.75 L
356.262 116.75 L
357.347 116.75 L
358.432 116.75 L
359.517 116.75 L
360.602 116.75 L
361.687 116.75 L
362.772 116.75 L
363.857 116.75 L
364.942 116.75 L
366.027 116.75 L
367.112 116.75 L
368.197 116.75 L
369.282 116.75 L
370.367 116.75 L
371.452 116.75 L
372.537 116.75 L
373.622 116.75 L
374.707 116.75 L
375.792 116.75 L
376.877 116.75 L
377.962 116.75 L
379.047 116.75 L
380.132 116.75 L
381.217 116.75 L
382.302 116.75 L
383.387 116.75 L
384.472 116.75 L
385.557 116.75 L
386.642 116.75 L
387.727 116.75 L
388.812 116.75 L
389.897 116.75 L
390.982 116.75 L
392.067 116.75 L
393.152 116.75 L
394.237 116.75 L
395.322 116.75 L
396.407 116.75 L
397.492 116.75 L
398.577 116.75 L
399.662 116.75 L
400.747 116.75 L
401.832 116.75 L
402.917 116.75 L
404.002 116.75 L
405.087 116.75 L
406.172 116.75 L
407.257 116.75 L
408.342 116.75 L
409.427 116.75 L
410.512 116.75 L
411.597 116.75 L
412.682 116.75 L
413.767 116.75 L
414.852 116.75 L
415.937 116.75 L
417.022 116.75 L
418.107 116.75 L
419.192 116.75 L
420.277 116.75 L
421.362 116.75 L
422.447 116.75 L
423.532 116.75 L
424.617 116.75 L
425.702 116.75 L
426.787 116.75 L
427.872 116.75 L
428.957 116.75 L
430.042 116.75 L
431.127 116.75 L
432.212 116.75 L
433.297 116.75 L
434.382 116.75 L
435.467 116.75 L
436.552 116.75 L
437.637 116.75 L
438.722 116.75 L
439.807 116.75 L
440.892 116.75 L
441.977 116.75 L
443.062 116.75 L
444.147 116.75 L
445.232 116.75 L
446.317 116.75 L
447.402 116.75 L
448.487 116.75 L
449.572 116.75 L
450.657 116.75 L
451.742 116.75 L
452.827 116.75 L
453.912 116.75 L
454.997 116.75 L
456.082 116.75 L
457.167 116.75 L
458.252 116.75 L
459.337 116.75 L
460.422 116.75 L
461.507 116.75 L
462.592 116.75 L
463.677 116.75 L
464.762 116.75 L
465.847 116.75 L
466.932 116.75 L
468.017 116.75 L
469.102 116.75 L
470.187 116.75 L
471.272 116.75 L
472.357 116.75 L
473.442 116.75 L
474.527 116.75 L
475.612 116.75 L
476.697 116.75 L
477.782 116.75 L
478.867 116.75 L
479.952 116.75 L
481.037 116.75 L
482.122 116.75 L
483.207 116.75 L
484.292 116.75 L
485.377 116.75 L
486.462 116.75 L
487.547 116.75 L
488.632 116.75 L
489.717 116.75 L
490.802 116.75 L
491.887 116.75 L
492.972 116.75 L
494.057 116.75 L
495.142 116.75 L
496.227 116.75 L
497.312 116.75 L
498.397 116.75 L
499.482 116.75 L
500.567 116.75 L
501.652 116.75 L
502.737 116.75 L
503.822 116.75 L
504.617 116.75 L
505.411 116.75 L
506.206 116.75 L
507 116.75 L
S
GR
GS
[0.75 0 0 0.75 0 0] CT
1 0 1 RC
1 LJ
2.667 LW
N
73 374 M
73.002 373.983 L
73.004 373.966 L
73.006 373.948 L
73.008 373.931 L
73.019 373.845 L
73.029 373.759 L
73.039 373.673 L
73.05 373.587 L
73.101 373.158 L
73.153 372.73 L
73.205 372.303 L
73.257 371.877 L
73.516 369.763 L
73.775 367.675 L
74.034 365.613 L
74.292 363.578 L
75.377 355.319 L
76.462 347.484 L
77.547 340.051 L
78.632 332.998 L
79.717 326.308 L
80.802 319.96 L
81.887 313.938 L
82.972 308.224 L
84.057 302.804 L
85.142 297.661 L
86.227 292.782 L
87.312 288.153 L
88.397 284.805 L
89.482 279.284 L
90.567 268.831 L
91.652 255.999 L
92.582 246.084 L
93.511 236.606 L
94.44 227.546 L
95.369 218.885 L
96.454 209.252 L
97.539 200.113 L
98.624 191.443 L
99.709 183.217 L
100.794 175.413 L
101.879 168.008 L
102.964 160.984 L
104.049 154.32 L
105.134 147.997 L
106.219 141.998 L
107.304 136.308 L
108.389 130.908 L
109.474 125.786 L
110.559 120.926 L
111.644 116.316 L
112.729 111.942 L
113.814 107.792 L
114.899 103.854 L
115.984 100.119 L
117.069 96.575 L
118.154 93.213 L
119.239 90.024 L
120.324 86.997 L
121.409 84.126 L
122.494 81.403 L
123.579 78.818 L
124.664 76.367 L
125.749 74.041 L
126.834 71.834 L
127.919 69.74 L
129.004 67.754 L
130.089 65.87 L
131.174 64.082 L
132.259 62.386 L
133.344 60.777 L
134.429 59.25 L
135.514 57.802 L
136.599 56.428 L
137.684 55.124 L
138.769 53.887 L
139.854 52.714 L
140.939 51.6 L
142.024 50.544 L
143.109 49.542 L
144.194 48.591 L
145.279 47.689 L
146.364 46.834 L
147.449 46.022 L
148.534 45.252 L
149.619 44.521 L
150.704 43.828 L
151.789 43.17 L
152.874 42.546 L
153.959 41.954 L
155.044 41.393 L
156.129 40.86 L
157.214 40.354 L
158.299 39.875 L
159.384 39.42 L
160.469 38.988 L
161.554 38.578 L
162.639 38.19 L
163.724 37.821 L
164.809 37.472 L
165.894 37.14 L
166.979 36.825 L
168.064 36.526 L
169.149 36.243 L
170.234 35.974 L
171.319 35.719 L
172.404 35.477 L
173.489 35.248 L
174.574 35.03 L
175.659 34.823 L
176.744 34.627 L
177.829 34.441 L
178.914 34.265 L
179.999 34.097 L
181.084 33.939 L
182.169 33.788 L
183.254 33.645 L
184.339 33.509 L
185.424 33.381 L
186.509 33.259 L
187.594 33.143 L
188.679 33.033 L
189.764 32.929 L
190.849 32.83 L
191.934 32.736 L
193.019 32.647 L
194.104 32.563 L
195.189 32.483 L
196.274 32.406 L
197.359 32.334 L
198.444 32.266 L
199.529 32.201 L
200.614 32.139 L
201.699 32.081 L
202.784 32.026 L
203.869 31.973 L
204.954 31.923 L
206.039 31.876 L
207.124 31.831 L
208.209 31.788 L
209.294 31.748 L
210.379 31.71 L
211.464 31.673 L
212.549 31.639 L
213.634 31.606 L
214.719 31.575 L
215.804 31.545 L
216.889 31.517 L
217.974 31.491 L
219.059 31.466 L
220.144 31.442 L
221.229 31.419 L
222.314 31.398 L
223.399 31.377 L
224.484 31.358 L
225.569 31.34 L
226.654 31.322 L
227.739 31.306 L
228.824 31.29 L
229.909 31.275 L
230.994 31.261 L
232.079 31.248 L
233.164 31.235 L
234.249 31.223 L
235.334 31.211 L
236.419 31.201 L
237.504 31.19 L
238.589 31.181 L
239.674 31.171 L
240.759 31.163 L
241.844 31.154 L
242.929 31.146 L
244.014 31.139 L
245.099 31.132 L
246.184 31.125 L
247.269 31.119 L
248.354 31.112 L
249.439 31.107 L
250.524 31.101 L
251.609 31.096 L
252.694 31.091 L
253.779 31.086 L
254.864 31.082 L
255.949 31.078 L
257.034 31.074 L
258.119 31.07 L
259.204 31.066 L
260.289 31.063 L
261.374 31.06 L
262.459 31.057 L
263.544 31.054 L
264.629 31.051 L
265.714 31.048 L
266.799 31.046 L
267.884 31.044 L
268.969 31.041 L
270.054 31.039 L
271.139 31.037 L
272.224 31.035 L
273.309 31.034 L
274.394 31.032 L
275.479 31.03 L
276.564 31.029 L
277.649 31.027 L
278.734 31.026 L
279.819 31.024 L
280.904 31.023 L
281.989 31.022 L
283.074 31.021 L
284.159 31.02 L
285.244 31.019 L
286.329 31.018 L
287.414 31.017 L
288.499 31.016 L
289.584 31.015 L
290.669 31.014 L
291.754 31.014 L
292.839 31.013 L
293.924 31.012 L
295.009 31.012 L
296.094 31.011 L
297.179 31.011 L
298.264 31.01 L
299.349 31.009 L
300.434 31.009 L
301.519 31.009 L
302.604 31.008 L
303.689 31.008 L
304.774 31.007 L
305.859 31.007 L
306.944 31.007 L
308.029 31.006 L
309.114 31.006 L
310.199 31.006 L
311.284 31.005 L
312.369 31.005 L
313.454 31.005 L
314.539 31.005 L
315.624 31.004 L
316.709 31.004 L
317.794 31.004 L
318.879 31.004 L
319.964 31.003 L
321.049 31.003 L
322.134 31.003 L
323.219 31.003 L
324.304 31.003 L
325.389 31.003 L
326.474 31.003 L
327.559 31.002 L
328.644 31.002 L
329.729 31.002 L
330.814 31.002 L
331.899 31.002 L
332.984 31.002 L
334.069 31.002 L
335.154 31.002 L
336.239 31.002 L
337.324 31.001 L
338.409 31.001 L
339.494 31.001 L
340.579 31.001 L
341.664 31.001 L
342.749 31.001 L
343.834 31.001 L
344.919 31.001 L
346.004 31.001 L
347.089 31.001 L
348.174 31.001 L
349.259 31.001 L
350.344 31.001 L
351.429 31.001 L
352.514 31.001 L
353.599 31.001 L
354.684 31.001 L
355.769 31.001 L
356.854 31.001 L
357.939 31.001 L
359.024 31.001 L
360.109 31 L
361.194 31 L
362.279 31 L
363.364 31 L
364.449 31 L
365.534 31 L
366.619 31 L
367.704 31 L
368.789 31 L
369.874 31 L
370.959 31 L
372.044 31 L
373.129 31 L
374.214 31 L
375.299 31 L
376.384 31 L
377.469 31 L
378.554 31 L
379.639 31 L
380.724 31 L
381.809 31 L
382.894 31 L
383.979 31 L
385.064 31 L
386.149 31 L
387.234 31 L
388.319 31 L
389.404 31 L
390.489 31 L
391.574 31 L
392.659 31 L
393.744 31 L
394.829 31 L
395.914 31 L
396.999 31 L
398.084 31 L
399.169 31 L
400.254 31 L
401.339 31 L
402.424 31 L
403.509 31 L
404.594 31 L
405.679 31 L
406.764 31 L
407.849 31 L
408.934 31 L
410.019 31 L
411.104 31 L
412.189 31 L
413.274 31 L
414.359 31 L
415.444 31 L
416.529 31 L
417.614 31 L
418.699 31 L
419.784 31 L
420.869 31 L
421.954 31 L
423.039 31 L
424.124 31 L
425.209 31 L
426.294 31 L
427.379 31 L
428.464 31 L
429.549 31 L
430.634 31 L
431.719 31 L
432.804 31 L
433.889 31 L
434.974 31 L
436.059 31 L
437.144 31 L
438.229 31 L
439.314 31 L
440.399 31 L
441.484 31 L
442.569 31 L
443.654 31 L
444.739 31 L
445.824 31 L
446.909 31 L
447.994 31 L
449.079 31 L
450.164 31 L
451.249 31 L
452.334 31 L
453.419 31 L
454.504 31 L
455.589 31 L
456.674 31 L
457.759 31 L
458.844 31 L
459.929 31 L
461.014 31 L
462.099 31 L
463.184 31 L
464.269 31 L
465.354 31 L
466.439 31 L
467.524 31 L
468.609 31 L
469.694 31 L
470.779 31 L
471.864 31 L
472.949 31 L
474.034 31 L
475.119 31 L
476.204 31 L
477.289 31 L
478.374 31 L
479.459 31 L
480.544 31 L
481.629 31 L
482.714 31 L
483.799 31 L
484.884 31 L
485.969 31 L
487.054 31 L
488.139 31 L
489.224 31 L
490.309 31 L
491.394 31 L
492.479 31 L
493.564 31 L
494.649 31 L
495.734 31 L
496.819 31 L
497.904 31 L
498.989 31 L
500.074 31 L
501.159 31 L
502.244 31 L
503.329 31 L
504.246 31 L
505.164 31 L
506.082 31 L
507 31 L
S
GR
GS
[0.75 0 0 0.75 0 0] CT
1 GC
N
494 125 M
494 44 L
397 44 L
397 125 L
cp
f
GR
GS
[0.75 0 0 0.75 333 40.125] CT
/Helvetica 12 F
GS
[1 0 0 1 0 0] CT
0 4.5 moveto 
1 -1 scale
(H2=0.5) t 
GR
GR
GS
[0.75 0 0 0.75 0 0] CT
1 LJ
2.667 LW
N
401 53.5 M
441 53.5 L
S
GR
GS
[0.75 0 0 0.75 333 51.75] CT
/Helvetica 12 F
GS
[1 0 0 1 0 0] CT
0 4.5 moveto 
1 -1 scale
(H2=1) t 
GR
GR
GS
[0.75 0 0 0.75 0 0] CT
1 0 0 RC
1 LJ
2.667 LW
N
401 69 M
441 69 L
S
GR
GS
[0.75 0 0 0.75 333 63.375] CT
/Helvetica 12 F
GS
[1 0 0 1 0 0] CT
0 4.5 moveto 
1 -1 scale
(H2=2) t 
GR
GR
GS
[0.75 0 0 0.75 0 0] CT
0 1 0 RC
1 LJ
2.667 LW
N
401 84.5 M
441 84.5 L
S
GR
GS
[0.75 0 0 0.75 333 75] CT
/Helvetica 12 F
GS
[1 0 0 1 0 0] CT
0 4.5 moveto 
1 -1 scale
(H2=3) t 
GR
GR
GS
[0.75 0 0 0.75 0 0] CT
0 0 1 RC
1 LJ
2.667 LW
N
401 100 M
441 100 L
S
GR
GS
[0.75 0 0 0.75 333 86.625] CT
/Helvetica 12 F
GS
[1 0 0 1 0 0] CT
0 4.5 moveto 
1 -1 scale
(H2=4) t 
GR
GR
GS
[0.75 0 0 0.75 0 0] CT
1 0 1 RC
1 LJ
2.667 LW
N
401 115.5 M
441 115.5 L
S
GR
GS
[0.75 0 0 0.75 0 0] CT
0.149 GC
10.0 ML
0.667 LW
N
397 125 M
397 44 L
494 44 L
494 125 L
cp
S
GR
%%Trailer
%%Pages: 1
%%EOF
