%!PS-Adobe-3.0 EPSF-3.0
%%Creator: (MATLAB, The Mathworks, Inc. Version 9.3.0.713579 \(R2017b\). Operating System: Linux)
%%Title: ../latex/img/robinson-step.eps
%%CreationDate: 2018-02-05T17:22:21
%%Pages: (atend)
%%BoundingBox:    20     6   383   296
%%LanguageLevel: 3
%%EndComments
%%BeginProlog
%%BeginResource: procset (Apache XML Graphics Std ProcSet) 1.2 0
%%Version: 1.2 0
%%Copyright: (Copyright 2001-2003,2010 The Apache Software Foundation. License terms: http://www.apache.org/licenses/LICENSE-2.0)
/bd{bind def}bind def
/ld{load def}bd
/GR/grestore ld
/GS/gsave ld
/RM/rmoveto ld
/C/curveto ld
/t/show ld
/L/lineto ld
/ML/setmiterlimit ld
/CT/concat ld
/f/fill ld
/N/newpath ld
/S/stroke ld
/CC/setcmykcolor ld
/A/ashow ld
/cp/closepath ld
/RC/setrgbcolor ld
/LJ/setlinejoin ld
/GC/setgray ld
/LW/setlinewidth ld
/M/moveto ld
/re {4 2 roll M
1 index 0 rlineto
0 exch rlineto
neg 0 rlineto
cp } bd
/_ctm matrix def
/_tm matrix def
/BT { _ctm currentmatrix pop matrix _tm copy pop 0 0 moveto } bd
/ET { _ctm setmatrix } bd
/iTm { _ctm setmatrix _tm concat } bd
/Tm { _tm astore pop iTm 0 0 moveto } bd
/ux 0.0 def
/uy 0.0 def
/F {
  /Tp exch def
  /Tf exch def
  Tf findfont Tp scalefont setfont
  /cf Tf def  /cs Tp def
} bd
/ULS {currentpoint /uy exch def /ux exch def} bd
/ULE {
  /Tcx currentpoint pop def
  gsave
  newpath
  cf findfont cs scalefont dup
  /FontMatrix get 0 get /Ts exch def /FontInfo get dup
  /UnderlinePosition get Ts mul /To exch def
  /UnderlineThickness get Ts mul /Tt exch def
  ux uy To add moveto  Tcx uy To add lineto
  Tt setlinewidth stroke
  grestore
} bd
/OLE {
  /Tcx currentpoint pop def
  gsave
  newpath
  cf findfont cs scalefont dup
  /FontMatrix get 0 get /Ts exch def /FontInfo get dup
  /UnderlinePosition get Ts mul /To exch def
  /UnderlineThickness get Ts mul /Tt exch def
  ux uy To add cs add moveto Tcx uy To add cs add lineto
  Tt setlinewidth stroke
  grestore
} bd
/SOE {
  /Tcx currentpoint pop def
  gsave
  newpath
  cf findfont cs scalefont dup
  /FontMatrix get 0 get /Ts exch def /FontInfo get dup
  /UnderlinePosition get Ts mul /To exch def
  /UnderlineThickness get Ts mul /Tt exch def
  ux uy To add cs 10 mul 26 idiv add moveto Tcx uy To add cs 10 mul 26 idiv add lineto
  Tt setlinewidth stroke
  grestore
} bd
/QT {
/Y22 exch store
/X22 exch store
/Y21 exch store
/X21 exch store
currentpoint
/Y21 load 2 mul add 3 div exch
/X21 load 2 mul add 3 div exch
/X21 load 2 mul /X22 load add 3 div
/Y21 load 2 mul /Y22 load add 3 div
/X22 load /Y22 load curveto
} bd
/SSPD {
dup length /d exch dict def
{
/v exch def
/k exch def
currentpagedevice k known {
/cpdv currentpagedevice k get def
v cpdv ne {
/upd false def
/nullv v type /nulltype eq def
/nullcpdv cpdv type /nulltype eq def
nullv nullcpdv or
{
/upd true def
} {
/sametype v type cpdv type eq def
sametype {
v type /arraytype eq {
/vlen v length def
/cpdvlen cpdv length def
vlen cpdvlen eq {
0 1 vlen 1 sub {
/i exch def
/obj v i get def
/cpdobj cpdv i get def
obj cpdobj ne {
/upd true def
exit
} if
} for
} {
/upd true def
} ifelse
} {
v type /dicttype eq {
v {
/dv exch def
/dk exch def
/cpddv cpdv dk get def
dv cpddv ne {
/upd true def
exit
} if
} forall
} {
/upd true def
} ifelse
} ifelse
} if
} ifelse
upd true eq {
d k v put
} if
} if
} if
} forall
d length 0 gt {
d setpagedevice
} if
} bd
/RE { % /NewFontName [NewEncodingArray] /FontName RE -
  findfont dup length dict begin
  {
    1 index /FID ne
    {def} {pop pop} ifelse
  } forall
  /Encoding exch def
  /FontName 1 index def
  currentdict definefont pop
  end
} bind def
%%EndResource
%%BeginResource: procset (Apache XML Graphics EPS ProcSet) 1.0 0
%%Version: 1.0 0
%%Copyright: (Copyright 2002-2003 The Apache Software Foundation. License terms: http://www.apache.org/licenses/LICENSE-2.0)
/BeginEPSF { %def
/b4_Inc_state save def         % Save state for cleanup
/dict_count countdictstack def % Count objects on dict stack
/op_count count 1 sub def      % Count objects on operand stack
userdict begin                 % Push userdict on dict stack
/showpage { } def              % Redefine showpage, { } = null proc
0 setgray 0 setlinecap         % Prepare graphics state
1 setlinewidth 0 setlinejoin
10 setmiterlimit [ ] 0 setdash newpath
/languagelevel where           % If level not equal to 1 then
{pop languagelevel             % set strokeadjust and
1 ne                           % overprint to their defaults.
{false setstrokeadjust false setoverprint
} if
} if
} bd
/EndEPSF { %def
count op_count sub {pop} repeat            % Clean up stacks
countdictstack dict_count sub {end} repeat
b4_Inc_state restore
} bd
%%EndResource
%FOPBeginFontDict
%%IncludeResource: font Courier-Oblique
%%IncludeResource: font Courier-BoldOblique
%%IncludeResource: font Courier-Bold
%%IncludeResource: font ZapfDingbats
%%IncludeResource: font Symbol
%%IncludeResource: font Helvetica
%%IncludeResource: font Helvetica-Oblique
%%IncludeResource: font Helvetica-Bold
%%IncludeResource: font Helvetica-BoldOblique
%%IncludeResource: font Times-Roman
%%IncludeResource: font Times-Italic
%%IncludeResource: font Times-Bold
%%IncludeResource: font Times-BoldItalic
%%IncludeResource: font Courier
%FOPEndFontDict
%%BeginResource: encoding WinAnsiEncoding
/WinAnsiEncoding [
/.notdef /.notdef /.notdef /.notdef /.notdef
/.notdef /.notdef /.notdef /.notdef /.notdef
/.notdef /.notdef /.notdef /.notdef /.notdef
/.notdef /.notdef /.notdef /.notdef /.notdef
/.notdef /.notdef /.notdef /.notdef /.notdef
/.notdef /.notdef /.notdef /.notdef /.notdef
/.notdef /.notdef /space /exclam /quotedbl
/numbersign /dollar /percent /ampersand /quotesingle
/parenleft /parenright /asterisk /plus /comma
/hyphen /period /slash /zero /one
/two /three /four /five /six
/seven /eight /nine /colon /semicolon
/less /equal /greater /question /at
/A /B /C /D /E
/F /G /H /I /J
/K /L /M /N /O
/P /Q /R /S /T
/U /V /W /X /Y
/Z /bracketleft /backslash /bracketright /asciicircum
/underscore /quoteleft /a /b /c
/d /e /f /g /h
/i /j /k /l /m
/n /o /p /q /r
/s /t /u /v /w
/x /y /z /braceleft /bar
/braceright /asciitilde /bullet /Euro /bullet
/quotesinglbase /florin /quotedblbase /ellipsis /dagger
/daggerdbl /circumflex /perthousand /Scaron /guilsinglleft
/OE /bullet /Zcaron /bullet /bullet
/quoteleft /quoteright /quotedblleft /quotedblright /bullet
/endash /emdash /asciitilde /trademark /scaron
/guilsinglright /oe /bullet /zcaron /Ydieresis
/space /exclamdown /cent /sterling /currency
/yen /brokenbar /section /dieresis /copyright
/ordfeminine /guillemotleft /logicalnot /sfthyphen /registered
/macron /degree /plusminus /twosuperior /threesuperior
/acute /mu /paragraph /middot /cedilla
/onesuperior /ordmasculine /guillemotright /onequarter /onehalf
/threequarters /questiondown /Agrave /Aacute /Acircumflex
/Atilde /Adieresis /Aring /AE /Ccedilla
/Egrave /Eacute /Ecircumflex /Edieresis /Igrave
/Iacute /Icircumflex /Idieresis /Eth /Ntilde
/Ograve /Oacute /Ocircumflex /Otilde /Odieresis
/multiply /Oslash /Ugrave /Uacute /Ucircumflex
/Udieresis /Yacute /Thorn /germandbls /agrave
/aacute /acircumflex /atilde /adieresis /aring
/ae /ccedilla /egrave /eacute /ecircumflex
/edieresis /igrave /iacute /icircumflex /idieresis
/eth /ntilde /ograve /oacute /ocircumflex
/otilde /odieresis /divide /oslash /ugrave
/uacute /ucircumflex /udieresis /yacute /thorn
/ydieresis
] def
%%EndResource
%FOPBeginFontReencode
/Courier-Oblique findfont
dup length dict begin
  {1 index /FID ne {def} {pop pop} ifelse} forall
  /Encoding WinAnsiEncoding def
  currentdict
end
/Courier-Oblique exch definefont pop
/Courier-BoldOblique findfont
dup length dict begin
  {1 index /FID ne {def} {pop pop} ifelse} forall
  /Encoding WinAnsiEncoding def
  currentdict
end
/Courier-BoldOblique exch definefont pop
/Courier-Bold findfont
dup length dict begin
  {1 index /FID ne {def} {pop pop} ifelse} forall
  /Encoding WinAnsiEncoding def
  currentdict
end
/Courier-Bold exch definefont pop
/Helvetica findfont
dup length dict begin
  {1 index /FID ne {def} {pop pop} ifelse} forall
  /Encoding WinAnsiEncoding def
  currentdict
end
/Helvetica exch definefont pop
/Helvetica-Oblique findfont
dup length dict begin
  {1 index /FID ne {def} {pop pop} ifelse} forall
  /Encoding WinAnsiEncoding def
  currentdict
end
/Helvetica-Oblique exch definefont pop
/Helvetica-Bold findfont
dup length dict begin
  {1 index /FID ne {def} {pop pop} ifelse} forall
  /Encoding WinAnsiEncoding def
  currentdict
end
/Helvetica-Bold exch definefont pop
/Helvetica-BoldOblique findfont
dup length dict begin
  {1 index /FID ne {def} {pop pop} ifelse} forall
  /Encoding WinAnsiEncoding def
  currentdict
end
/Helvetica-BoldOblique exch definefont pop
/Times-Roman findfont
dup length dict begin
  {1 index /FID ne {def} {pop pop} ifelse} forall
  /Encoding WinAnsiEncoding def
  currentdict
end
/Times-Roman exch definefont pop
/Times-Italic findfont
dup length dict begin
  {1 index /FID ne {def} {pop pop} ifelse} forall
  /Encoding WinAnsiEncoding def
  currentdict
end
/Times-Italic exch definefont pop
/Times-Bold findfont
dup length dict begin
  {1 index /FID ne {def} {pop pop} ifelse} forall
  /Encoding WinAnsiEncoding def
  currentdict
end
/Times-Bold exch definefont pop
/Times-BoldItalic findfont
dup length dict begin
  {1 index /FID ne {def} {pop pop} ifelse} forall
  /Encoding WinAnsiEncoding def
  currentdict
end
/Times-BoldItalic exch definefont pop
/Courier findfont
dup length dict begin
  {1 index /FID ne {def} {pop pop} ifelse} forall
  /Encoding WinAnsiEncoding def
  currentdict
end
/Courier exch definefont pop
%FOPEndFontReencode
%%EndProlog
%%Page: 1 1
%%PageBoundingBox: 0 0 420 315
%%BeginPageSetup
[1 0 0 -1 0 315] CT
%%EndPageSetup
GS
[0.75 0 0 0.75 0 0] CT
1 GC
N
0 0 560 420 re
f
GR
GS
[0.75 0 0 0.75 0 0] CT
1 GC
N
0 0 560 420 re
f
GR
GS
[0.75 0 0 0.75 0 0] CT
1 GC
N
73 374 M
507 374 L
507 31 L
73 31 L
cp
f
GR
GS
[0.75 0 0 0.75 0 0] CT
0.149 GC
2 setlinecap
1 LJ
0.667 LW
N
73 374 M
507 374 L
S
GR
GS
[0.75 0 0 0.75 0 0] CT
0.149 GC
2 setlinecap
1 LJ
0.667 LW
N
73 374 M
73 369.66 L
S
GR
GS
[0.75 0 0 0.75 0 0] CT
0.149 GC
2 setlinecap
1 LJ
0.667 LW
N
159.8 374 M
159.8 369.66 L
S
GR
GS
[0.75 0 0 0.75 0 0] CT
0.149 GC
2 setlinecap
1 LJ
0.667 LW
N
246.6 374 M
246.6 369.66 L
S
GR
GS
[0.75 0 0 0.75 0 0] CT
0.149 GC
2 setlinecap
1 LJ
0.667 LW
N
333.4 374 M
333.4 369.66 L
S
GR
GS
[0.75 0 0 0.75 0 0] CT
0.149 GC
2 setlinecap
1 LJ
0.667 LW
N
420.2 374 M
420.2 369.66 L
S
GR
GS
[0.75 0 0 0.75 0 0] CT
0.149 GC
2 setlinecap
1 LJ
0.667 LW
N
507 374 M
507 369.66 L
S
GR
GS
[0.75 0 0 0.75 54.75 284.50001] CT
0.149 GC
/Helvetica 13.333 F
GS
[1 0 0 1 0 0] CT
-4.5 13 moveto 
1 -1 scale
(0) t 
GR
GR
GS
[0.75 0 0 0.75 119.85 284.50001] CT
0.149 GC
/Helvetica 13.333 F
GS
[1 0 0 1 0 0] CT
-4.5 13 moveto 
1 -1 scale
(1) t 
GR
GR
GS
[0.75 0 0 0.75 184.95 284.50001] CT
0.149 GC
/Helvetica 13.333 F
GS
[1 0 0 1 0 0] CT
-4.5 13 moveto 
1 -1 scale
(2) t 
GR
GR
GS
[0.75 0 0 0.75 250.05 284.50001] CT
0.149 GC
/Helvetica 13.333 F
GS
[1 0 0 1 0 0] CT
-4.5 13 moveto 
1 -1 scale
(3) t 
GR
GR
GS
[0.75 0 0 0.75 315.15001 284.50001] CT
0.149 GC
/Helvetica 13.333 F
GS
[1 0 0 1 0 0] CT
-4.5 13 moveto 
1 -1 scale
(4) t 
GR
GR
GS
[0.75 0 0 0.75 380.25 284.50001] CT
0.149 GC
/Helvetica 13.333 F
GS
[1 0 0 1 0 0] CT
-4.5 13 moveto 
1 -1 scale
(5) t 
GR
GR
GS
[0.75 0 0 0.75 217.50016 298.24999] CT
0.149 GC
/Helvetica 14.667 F
GS
[1 0 0 1 0 0] CT
-3 14 moveto 
1 -1 scale
(t) t 
GR
GR
GS
[0.75 0 0 0.75 0 0] CT
0.149 GC
2 setlinecap
1 LJ
0.667 LW
N
73 374 M
73 31 L
S
GR
GS
[0.75 0 0 0.75 0 0] CT
0.149 GC
2 setlinecap
1 LJ
0.667 LW
N
73 374 M
77.34 374 L
S
GR
GS
[0.75 0 0 0.75 0 0] CT
0.149 GC
2 setlinecap
1 LJ
0.667 LW
N
73 331.125 M
77.34 331.125 L
S
GR
GS
[0.75 0 0 0.75 0 0] CT
0.149 GC
2 setlinecap
1 LJ
0.667 LW
N
73 288.25 M
77.34 288.25 L
S
GR
GS
[0.75 0 0 0.75 0 0] CT
0.149 GC
2 setlinecap
1 LJ
0.667 LW
N
73 245.375 M
77.34 245.375 L
S
GR
GS
[0.75 0 0 0.75 0 0] CT
0.149 GC
2 setlinecap
1 LJ
0.667 LW
N
73 202.5 M
77.34 202.5 L
S
GR
GS
[0.75 0 0 0.75 0 0] CT
0.149 GC
2 setlinecap
1 LJ
0.667 LW
N
73 159.625 M
77.34 159.625 L
S
GR
GS
[0.75 0 0 0.75 0 0] CT
0.149 GC
2 setlinecap
1 LJ
0.667 LW
N
73 116.75 M
77.34 116.75 L
S
GR
GS
[0.75 0 0 0.75 0 0] CT
0.149 GC
2 setlinecap
1 LJ
0.667 LW
N
73 73.875 M
77.34 73.875 L
S
GR
GS
[0.75 0 0 0.75 0 0] CT
0.149 GC
2 setlinecap
1 LJ
0.667 LW
N
73 31 M
77.34 31 L
S
GR
GS
[0.75 0 0 0.75 50.75 280.5] CT
0.149 GC
/Helvetica 13.333 F
GS
[1 0 0 1 0 0] CT
-9 4.5 moveto 
1 -1 scale
(0) t 
GR
GR
GS
[0.75 0 0 0.75 50.75 248.34375] CT
0.149 GC
/Helvetica 13.333 F
GS
[1 0 0 1 0 0] CT
-22 4.5 moveto 
1 -1 scale
(0.1) t 
GR
GR
GS
[0.75 0 0 0.75 50.75 216.1875] CT
0.149 GC
/Helvetica 13.333 F
GS
[1 0 0 1 0 0] CT
-22 4.5 moveto 
1 -1 scale
(0.2) t 
GR
GR
GS
[0.75 0 0 0.75 50.75 184.03125] CT
0.149 GC
/Helvetica 13.333 F
GS
[1 0 0 1 0 0] CT
-22 4.5 moveto 
1 -1 scale
(0.3) t 
GR
GR
GS
[0.75 0 0 0.75 50.75 151.875] CT
0.149 GC
/Helvetica 13.333 F
GS
[1 0 0 1 0 0] CT
-22 4.5 moveto 
1 -1 scale
(0.4) t 
GR
GR
GS
[0.75 0 0 0.75 50.75 119.71875] CT
0.149 GC
/Helvetica 13.333 F
GS
[1 0 0 1 0 0] CT
-22 4.5 moveto 
1 -1 scale
(0.5) t 
GR
GR
GS
[0.75 0 0 0.75 50.75 87.56249] CT
0.149 GC
/Helvetica 13.333 F
GS
[1 0 0 1 0 0] CT
-22 4.5 moveto 
1 -1 scale
(0.6) t 
GR
GR
GS
[0.75 0 0 0.75 50.75 55.40626] CT
0.149 GC
/Helvetica 13.333 F
GS
[1 0 0 1 0 0] CT
-22 4.5 moveto 
1 -1 scale
(0.7) t 
GR
GR
GS
[0.75 0 0 0.75 50.75 23.25] CT
0.149 GC
/Helvetica 13.333 F
GS
[1 0 0 1 0 0] CT
-22 4.5 moveto 
1 -1 scale
(0.8) t 
GR
GR
GS
[0 -0.75 0.75 0 31.25 151.87487] CT
0.149 GC
/Helvetica 14.667 F
GS
[1 0 0 1 0 0] CT
-5 -4 moveto 
1 -1 scale
(E) t 
GR
GR
GS
[0.75 0 0 0.75 0 0] CT
0 0 1 RC
1 LJ
2.667 LW
N
73 374 M
73.004 373.978 L
73.008 373.957 L
73.012 373.935 L
73.017 373.914 L
73.037 373.806 L
73.058 373.699 L
73.079 373.592 L
73.099 373.484 L
73.203 372.95 L
73.307 372.418 L
73.41 371.889 L
73.514 371.362 L
74.032 368.769 L
74.549 366.24 L
75.067 363.773 L
75.585 361.368 L
76.67 356.52 L
77.755 351.921 L
78.84 347.557 L
79.925 343.417 L
81.01 339.49 L
82.095 335.764 L
83.18 332.228 L
84.265 328.874 L
85.35 325.693 L
86.435 322.674 L
87.52 319.81 L
88.605 317.092 L
89.69 314.515 L
90.775 312.069 L
91.86 309.749 L
92.945 307.547 L
94.03 305.459 L
95.115 303.477 L
96.2 301.598 L
97.285 299.814 L
98.37 298.122 L
99.455 296.517 L
100.54 294.994 L
101.625 293.549 L
102.71 292.178 L
103.795 290.878 L
104.88 289.644 L
105.965 288.473 L
107.05 287.363 L
108.135 286.309 L
109.22 285.309 L
110.305 284.361 L
111.39 283.461 L
112.475 282.608 L
113.56 281.798 L
114.645 281.03 L
115.73 280.301 L
116.815 279.609 L
117.9 278.953 L
118.985 278.331 L
120.07 277.74 L
121.155 277.18 L
122.24 276.648 L
123.325 276.144 L
124.41 275.666 L
125.495 275.212 L
126.58 274.781 L
127.665 274.372 L
128.75 273.985 L
129.835 273.617 L
130.92 273.268 L
132.005 272.937 L
133.09 272.623 L
134.175 272.325 L
135.26 272.043 L
136.345 271.775 L
137.43 271.52 L
138.515 271.279 L
139.6 271.05 L
140.685 270.833 L
141.77 270.626 L
142.855 270.431 L
143.94 270.245 L
145.025 270.069 L
146.11 269.902 L
147.195 269.744 L
148.28 269.594 L
149.365 269.451 L
150.45 269.316 L
151.535 269.187 L
152.62 269.066 L
153.705 268.95 L
154.79 268.841 L
155.875 268.737 L
156.96 268.638 L
158.045 268.544 L
159.13 268.456 L
160.215 268.371 L
161.3 268.291 L
162.385 268.216 L
163.47 268.144 L
164.555 268.075 L
165.64 268.011 L
166.725 267.949 L
167.81 267.891 L
168.895 267.836 L
169.98 267.783 L
171.065 267.733 L
172.15 267.686 L
173.235 267.641 L
174.32 267.599 L
175.405 267.559 L
176.49 267.52 L
177.575 267.484 L
178.66 267.45 L
179.745 267.417 L
180.83 267.386 L
181.915 267.357 L
183 267.329 L
184.085 267.302 L
185.17 267.277 L
186.255 267.253 L
187.34 267.231 L
188.425 267.209 L
189.51 267.189 L
190.595 267.17 L
191.68 267.151 L
192.765 267.134 L
193.85 267.117 L
194.935 267.102 L
196.02 267.087 L
197.105 267.073 L
198.19 267.06 L
199.275 267.047 L
200.36 267.035 L
201.445 267.023 L
202.53 267.013 L
203.615 267.002 L
204.7 266.993 L
205.785 266.983 L
206.87 266.975 L
207.955 266.966 L
209.04 266.958 L
210.125 266.951 L
211.21 266.944 L
212.295 266.937 L
213.38 266.931 L
214.465 266.925 L
215.55 266.919 L
216.635 266.913 L
217.72 266.908 L
218.805 266.903 L
219.89 266.899 L
220.975 266.894 L
222.06 266.89 L
223.145 266.886 L
224.23 266.882 L
225.315 266.879 L
226.4 266.875 L
227.485 266.872 L
228.57 266.869 L
229.655 266.866 L
230.74 266.863 L
231.825 266.861 L
232.91 266.858 L
233.995 266.856 L
235.08 266.854 L
236.165 266.852 L
237.25 266.85 L
238.335 266.848 L
239.42 266.846 L
240.505 266.844 L
241.59 266.843 L
242.675 266.841 L
243.76 266.84 L
244.845 266.838 L
245.93 266.837 L
247.015 266.836 L
248.1 266.834 L
249.185 266.833 L
250.27 266.832 L
251.355 266.831 L
252.44 266.83 L
253.525 266.829 L
254.61 266.828 L
255.695 266.828 L
256.78 266.827 L
257.865 266.826 L
258.95 266.825 L
260.035 266.825 L
261.12 266.824 L
262.205 266.824 L
263.29 266.823 L
264.375 266.822 L
265.46 266.822 L
266.545 266.821 L
267.63 266.821 L
268.715 266.821 L
269.8 266.82 L
270.885 266.82 L
271.97 266.819 L
273.055 266.819 L
274.14 266.819 L
275.225 266.818 L
276.31 266.818 L
277.395 266.818 L
278.48 266.818 L
279.565 266.817 L
280.65 266.817 L
281.735 266.817 L
282.82 266.817 L
283.905 266.816 L
284.99 266.816 L
286.075 266.816 L
287.16 266.816 L
288.245 266.816 L
289.33 266.815 L
290.415 266.815 L
291.5 266.815 L
292.585 266.815 L
293.67 266.815 L
294.755 266.815 L
295.84 266.815 L
296.925 266.815 L
298.01 266.814 L
299.095 266.814 L
300.18 266.814 L
301.265 266.814 L
302.35 266.814 L
303.435 266.814 L
304.52 266.814 L
305.605 266.814 L
306.69 266.814 L
307.775 266.814 L
308.86 266.814 L
309.945 266.814 L
311.03 266.814 L
312.115 266.813 L
313.2 266.813 L
314.285 266.813 L
315.37 266.813 L
316.455 266.813 L
317.54 266.813 L
318.625 266.813 L
319.71 266.813 L
320.795 266.813 L
321.88 266.813 L
322.965 266.813 L
324.05 266.813 L
325.135 266.813 L
326.22 266.813 L
327.305 266.813 L
328.39 266.813 L
329.475 266.813 L
330.56 266.813 L
331.645 266.813 L
332.73 266.813 L
333.815 266.813 L
334.9 266.813 L
335.985 266.813 L
337.07 266.813 L
338.155 266.813 L
339.24 266.813 L
340.325 266.813 L
341.41 266.813 L
342.495 266.813 L
343.58 266.813 L
344.665 266.813 L
345.75 266.813 L
346.835 266.813 L
347.92 266.813 L
349.005 266.813 L
350.09 266.813 L
351.175 266.813 L
352.26 266.813 L
353.345 266.813 L
354.43 266.813 L
355.515 266.813 L
356.6 266.813 L
357.685 266.813 L
358.77 266.813 L
359.855 266.813 L
360.94 266.813 L
362.025 266.813 L
363.11 266.813 L
364.195 266.813 L
365.28 266.813 L
366.365 266.813 L
367.45 266.813 L
368.535 266.813 L
369.62 266.813 L
370.705 266.813 L
371.79 266.813 L
372.875 266.813 L
373.96 266.813 L
375.045 266.813 L
376.13 266.813 L
377.215 266.813 L
378.3 266.813 L
379.385 266.813 L
380.47 266.813 L
381.555 266.813 L
382.64 266.813 L
383.725 266.813 L
384.81 266.813 L
385.895 266.813 L
386.98 266.813 L
388.065 266.813 L
389.15 266.813 L
390.235 266.813 L
391.32 266.813 L
392.405 266.813 L
393.49 266.813 L
394.575 266.813 L
395.66 266.813 L
396.745 266.813 L
397.83 266.813 L
398.915 266.813 L
400 266.813 L
401.085 266.813 L
402.17 266.813 L
403.255 266.813 L
404.34 266.813 L
405.425 266.813 L
406.51 266.813 L
407.595 266.813 L
408.68 266.813 L
409.765 266.813 L
410.85 266.813 L
411.935 266.813 L
413.02 266.813 L
414.105 266.813 L
415.19 266.813 L
416.275 266.813 L
417.36 266.813 L
418.445 266.813 L
419.53 266.813 L
420.615 266.813 L
421.7 266.813 L
422.785 266.813 L
423.87 266.813 L
424.955 266.813 L
426.04 266.813 L
427.125 266.813 L
428.21 266.813 L
429.295 266.813 L
430.38 266.813 L
431.465 266.813 L
432.55 266.813 L
433.635 266.813 L
434.72 266.813 L
435.805 266.813 L
436.89 266.813 L
437.975 266.813 L
439.06 266.813 L
440.145 266.813 L
441.23 266.813 L
442.315 266.813 L
443.4 266.813 L
444.485 266.813 L
445.57 266.813 L
446.655 266.813 L
447.74 266.813 L
448.825 266.813 L
449.91 266.813 L
450.995 266.813 L
452.08 266.813 L
453.165 266.813 L
454.25 266.813 L
455.335 266.813 L
456.42 266.813 L
457.505 266.813 L
458.59 266.813 L
459.675 266.813 L
460.76 266.813 L
461.845 266.813 L
462.93 266.813 L
464.015 266.813 L
465.1 266.813 L
466.185 266.813 L
467.27 266.813 L
468.355 266.813 L
469.44 266.813 L
470.525 266.813 L
471.61 266.813 L
472.695 266.813 L
473.78 266.813 L
474.865 266.813 L
475.95 266.813 L
477.035 266.813 L
478.12 266.813 L
479.205 266.813 L
480.29 266.813 L
481.375 266.813 L
482.46 266.813 L
483.545 266.813 L
484.63 266.813 L
485.715 266.813 L
486.8 266.813 L
487.885 266.813 L
488.97 266.813 L
490.055 266.813 L
491.14 266.813 L
492.225 266.813 L
493.31 266.813 L
494.395 266.813 L
495.48 266.813 L
496.565 266.813 L
497.65 266.813 L
498.735 266.813 L
499.82 266.813 L
500.905 266.813 L
501.99 266.813 L
503.075 266.813 L
504.16 266.813 L
505.245 266.813 L
505.684 266.813 L
506.122 266.813 L
506.561 266.813 L
507 266.813 L
S
GR
GS
[0.75 0 0 0.75 0 0] CT
0 0 1 RC
[8 8] 0 setdash
2 LJ
2.667 LW
N
73 374 M
73.002 373.978 L
73.004 373.957 L
73.006 373.935 L
73.008 373.914 L
73.019 373.806 L
73.029 373.699 L
73.039 373.591 L
73.05 373.484 L
73.101 372.947 L
73.153 372.412 L
73.205 371.878 L
73.257 371.346 L
73.516 368.703 L
73.775 366.094 L
74.034 363.517 L
74.292 360.972 L
75.377 350.649 L
76.462 340.855 L
77.547 331.563 L
78.632 322.748 L
79.717 314.384 L
80.802 306.45 L
81.887 298.922 L
82.972 291.78 L
84.057 285.005 L
85.142 278.576 L
86.227 272.478 L
87.312 266.692 L
88.397 261.202 L
89.482 255.994 L
90.567 251.053 L
91.652 246.366 L
92.737 241.919 L
93.822 237.699 L
94.907 233.696 L
95.992 229.899 L
97.077 226.296 L
98.162 222.878 L
99.247 219.635 L
100.332 216.558 L
101.417 213.639 L
102.502 210.87 L
103.587 208.242 L
104.672 205.75 L
105.757 203.385 L
106.842 201.141 L
107.927 199.013 L
109.012 196.993 L
110.097 195.077 L
111.182 193.26 L
112.267 191.535 L
113.352 189.899 L
114.437 188.347 L
115.522 186.874 L
116.607 185.477 L
117.692 184.152 L
118.777 182.894 L
119.862 181.701 L
120.947 180.569 L
122.032 179.496 L
123.117 178.477 L
124.202 177.51 L
125.287 176.593 L
126.372 175.723 L
127.457 174.898 L
128.542 174.115 L
129.627 173.372 L
130.712 172.667 L
131.797 171.998 L
132.882 171.364 L
133.967 170.762 L
135.052 170.191 L
136.137 169.649 L
137.222 169.136 L
138.307 168.648 L
139.393 168.185 L
140.477 167.746 L
141.563 167.33 L
142.647 166.935 L
143.732 166.56 L
144.817 166.205 L
145.902 165.867 L
146.987 165.547 L
148.072 165.244 L
149.157 164.956 L
150.242 164.682 L
151.327 164.423 L
152.412 164.177 L
153.497 163.944 L
154.582 163.722 L
155.667 163.512 L
156.752 163.313 L
157.837 163.124 L
158.922 162.944 L
160.007 162.774 L
161.092 162.613 L
162.177 162.46 L
163.262 162.314 L
164.347 162.176 L
165.432 162.046 L
166.517 161.921 L
167.602 161.804 L
168.687 161.692 L
169.772 161.586 L
170.857 161.485 L
171.942 161.39 L
173.027 161.3 L
174.112 161.214 L
175.197 161.132 L
176.283 161.055 L
177.367 160.982 L
178.452 160.912 L
179.537 160.846 L
180.622 160.784 L
181.707 160.724 L
182.792 160.668 L
183.877 160.614 L
184.962 160.564 L
186.047 160.515 L
187.132 160.47 L
188.217 160.426 L
189.302 160.385 L
190.387 160.346 L
191.472 160.309 L
192.557 160.274 L
193.642 160.241 L
194.727 160.209 L
195.812 160.179 L
196.897 160.151 L
197.982 160.124 L
199.067 160.099 L
200.152 160.074 L
201.237 160.051 L
202.322 160.029 L
203.408 160.009 L
204.492 159.989 L
205.577 159.97 L
206.662 159.953 L
207.747 159.936 L
208.832 159.92 L
209.917 159.905 L
211.002 159.89 L
212.087 159.877 L
213.172 159.864 L
214.257 159.852 L
215.342 159.84 L
216.427 159.829 L
217.512 159.819 L
218.597 159.809 L
219.682 159.799 L
220.767 159.79 L
221.852 159.782 L
222.937 159.774 L
224.022 159.766 L
225.107 159.759 L
226.192 159.752 L
227.277 159.746 L
228.362 159.739 L
229.447 159.733 L
230.533 159.728 L
231.617 159.723 L
232.702 159.718 L
233.787 159.713 L
234.872 159.708 L
235.957 159.704 L
237.042 159.7 L
238.127 159.696 L
239.212 159.693 L
240.297 159.689 L
241.382 159.686 L
242.467 159.683 L
243.552 159.68 L
244.637 159.677 L
245.722 159.674 L
246.807 159.672 L
247.892 159.669 L
248.977 159.667 L
250.063 159.665 L
251.148 159.663 L
252.232 159.661 L
253.317 159.659 L
254.402 159.657 L
255.488 159.656 L
256.573 159.654 L
257.657 159.653 L
258.742 159.651 L
259.827 159.65 L
260.913 159.649 L
261.997 159.647 L
263.082 159.646 L
264.167 159.645 L
265.253 159.644 L
266.337 159.643 L
267.423 159.642 L
268.507 159.641 L
269.592 159.64 L
270.677 159.64 L
271.763 159.639 L
272.848 159.638 L
273.932 159.638 L
275.017 159.637 L
276.103 159.636 L
277.188 159.636 L
278.272 159.635 L
279.357 159.635 L
280.442 159.634 L
281.527 159.634 L
282.612 159.633 L
283.698 159.633 L
284.782 159.632 L
285.867 159.632 L
286.952 159.632 L
288.038 159.631 L
289.122 159.631 L
290.207 159.631 L
291.292 159.63 L
292.378 159.63 L
293.462 159.63 L
294.548 159.63 L
295.632 159.629 L
296.717 159.629 L
297.802 159.629 L
298.888 159.629 L
299.973 159.629 L
301.057 159.628 L
302.142 159.628 L
303.228 159.628 L
304.313 159.628 L
305.397 159.628 L
306.482 159.628 L
307.567 159.627 L
308.652 159.627 L
309.737 159.627 L
310.823 159.627 L
311.907 159.627 L
312.992 159.627 L
314.077 159.627 L
315.163 159.627 L
316.247 159.627 L
317.332 159.627 L
318.417 159.626 L
319.503 159.626 L
320.587 159.626 L
321.673 159.626 L
322.757 159.626 L
323.842 159.626 L
324.927 159.626 L
326.013 159.626 L
327.098 159.626 L
328.182 159.626 L
329.267 159.626 L
330.353 159.626 L
331.438 159.626 L
332.522 159.626 L
333.607 159.626 L
334.692 159.626 L
335.777 159.626 L
336.862 159.626 L
337.948 159.626 L
339.032 159.626 L
340.117 159.626 L
341.202 159.625 L
342.288 159.625 L
343.372 159.625 L
344.457 159.625 L
345.542 159.625 L
346.628 159.625 L
347.712 159.625 L
348.798 159.625 L
349.882 159.625 L
350.967 159.625 L
352.052 159.625 L
353.138 159.625 L
354.223 159.625 L
355.307 159.625 L
356.392 159.625 L
357.478 159.625 L
358.563 159.625 L
359.647 159.625 L
360.732 159.625 L
361.817 159.625 L
362.902 159.625 L
363.987 159.625 L
365.073 159.625 L
366.157 159.625 L
367.242 159.625 L
368.327 159.625 L
369.413 159.625 L
370.497 159.625 L
371.582 159.625 L
372.667 159.625 L
373.753 159.625 L
374.837 159.625 L
375.923 159.625 L
377.007 159.625 L
378.092 159.625 L
379.177 159.625 L
380.263 159.625 L
381.348 159.625 L
382.432 159.625 L
383.517 159.625 L
384.603 159.625 L
385.688 159.625 L
386.772 159.625 L
387.857 159.625 L
388.942 159.625 L
390.027 159.625 L
391.112 159.625 L
392.198 159.625 L
393.282 159.625 L
394.367 159.625 L
395.452 159.625 L
396.538 159.625 L
397.622 159.625 L
398.707 159.625 L
399.792 159.625 L
400.878 159.625 L
401.962 159.625 L
403.048 159.625 L
404.132 159.625 L
405.217 159.625 L
406.302 159.625 L
407.388 159.625 L
408.473 159.625 L
409.557 159.625 L
410.642 159.625 L
411.728 159.625 L
412.813 159.625 L
413.897 159.625 L
414.982 159.625 L
416.067 159.625 L
417.152 159.625 L
418.237 159.625 L
419.323 159.625 L
420.407 159.625 L
421.493 159.625 L
422.577 159.625 L
423.662 159.625 L
424.747 159.625 L
425.832 159.625 L
426.918 159.625 L
428.003 159.625 L
429.087 159.625 L
430.173 159.625 L
431.257 159.625 L
432.342 159.625 L
433.427 159.625 L
434.512 159.625 L
435.598 159.625 L
436.682 159.625 L
437.768 159.625 L
438.853 159.625 L
439.937 159.625 L
441.022 159.625 L
442.107 159.625 L
443.193 159.625 L
444.277 159.625 L
445.362 159.625 L
446.448 159.625 L
447.532 159.625 L
448.618 159.625 L
449.702 159.625 L
450.787 159.625 L
451.872 159.625 L
452.957 159.625 L
454.043 159.625 L
455.128 159.625 L
456.212 159.625 L
457.298 159.625 L
458.382 159.625 L
459.467 159.625 L
460.552 159.625 L
461.637 159.625 L
462.723 159.625 L
463.807 159.625 L
464.893 159.625 L
465.978 159.625 L
467.062 159.625 L
468.147 159.625 L
469.232 159.625 L
470.318 159.625 L
471.402 159.625 L
472.487 159.625 L
473.573 159.625 L
474.657 159.625 L
475.743 159.625 L
476.827 159.625 L
477.912 159.625 L
478.997 159.625 L
480.082 159.625 L
481.168 159.625 L
482.253 159.625 L
483.337 159.625 L
484.423 159.625 L
485.507 159.625 L
486.592 159.625 L
487.677 159.625 L
488.762 159.625 L
489.848 159.625 L
490.932 159.625 L
492.018 159.625 L
493.103 159.625 L
494.187 159.625 L
495.272 159.625 L
496.357 159.625 L
497.443 159.625 L
498.527 159.625 L
499.612 159.625 L
500.698 159.625 L
501.782 159.625 L
502.868 159.625 L
503.952 159.625 L
504.714 159.625 L
505.476 159.625 L
506.238 159.625 L
507 159.625 L
S
GR
GS
[0.75 0 0 0.75 0 0] CT
0 0 1 RC
[8 2 4 2] 0 setdash
2 LJ
2.667 LW
N
73 374 M
73.001 373.978 L
73.003 373.957 L
73.004 373.935 L
73.006 373.914 L
73.012 373.806 L
73.019 373.699 L
73.026 373.591 L
73.033 373.483 L
73.068 372.946 L
73.102 372.41 L
73.137 371.875 L
73.171 371.34 L
73.344 368.681 L
73.516 366.044 L
73.689 363.429 L
73.862 360.836 L
74.725 348.192 L
75.588 336.066 L
76.451 324.437 L
77.314 313.285 L
78.399 299.911 L
79.484 287.223 L
80.569 275.185 L
81.654 263.765 L
82.739 252.93 L
83.824 242.651 L
84.909 232.898 L
85.994 223.646 L
87.079 214.868 L
88.164 206.54 L
89.249 198.639 L
90.334 191.143 L
91.419 184.032 L
92.504 177.285 L
93.589 170.884 L
94.674 164.811 L
95.759 159.05 L
96.844 153.584 L
97.929 148.398 L
99.014 143.478 L
100.099 138.81 L
101.184 134.382 L
102.269 130.181 L
103.354 126.195 L
104.439 122.413 L
105.524 118.825 L
106.609 115.422 L
107.694 112.192 L
108.779 109.129 L
109.864 106.222 L
110.949 103.465 L
112.034 100.848 L
113.119 98.366 L
114.204 96.012 L
115.289 93.777 L
116.374 91.658 L
117.459 89.647 L
118.544 87.739 L
119.629 85.929 L
120.714 84.212 L
121.799 82.583 L
122.884 81.038 L
123.969 79.571 L
125.054 78.18 L
126.139 76.86 L
127.224 75.608 L
128.309 74.42 L
129.394 73.293 L
130.479 72.224 L
131.564 71.209 L
132.649 70.247 L
133.734 69.334 L
134.819 68.467 L
135.904 67.646 L
136.989 66.866 L
138.074 66.126 L
139.159 65.424 L
140.244 64.758 L
141.329 64.127 L
142.414 63.527 L
143.499 62.959 L
144.584 62.419 L
145.669 61.908 L
146.754 61.422 L
147.839 60.961 L
148.924 60.524 L
150.009 60.11 L
151.094 59.716 L
152.179 59.343 L
153.264 58.989 L
154.349 58.653 L
155.434 58.335 L
156.519 58.032 L
157.604 57.745 L
158.689 57.473 L
159.774 57.215 L
160.859 56.97 L
161.944 56.738 L
163.029 56.517 L
164.114 56.308 L
165.199 56.11 L
166.284 55.921 L
167.369 55.743 L
168.454 55.573 L
169.539 55.413 L
170.624 55.26 L
171.709 55.115 L
172.794 54.978 L
173.879 54.848 L
174.964 54.724 L
176.049 54.607 L
177.134 54.496 L
178.219 54.39 L
179.304 54.29 L
180.389 54.195 L
181.474 54.105 L
182.559 54.019 L
183.644 53.938 L
184.729 53.861 L
185.814 53.788 L
186.899 53.719 L
187.984 53.653 L
189.069 53.591 L
190.154 53.532 L
191.239 53.476 L
192.324 53.423 L
193.409 53.372 L
194.494 53.324 L
195.579 53.279 L
196.664 53.236 L
197.749 53.195 L
198.834 53.156 L
199.919 53.119 L
201.004 53.084 L
202.089 53.051 L
203.174 53.019 L
204.259 52.99 L
205.344 52.961 L
206.429 52.934 L
207.514 52.909 L
208.599 52.885 L
209.684 52.862 L
210.769 52.84 L
211.854 52.819 L
212.939 52.8 L
214.024 52.781 L
215.109 52.764 L
216.194 52.747 L
217.279 52.731 L
218.364 52.716 L
219.449 52.702 L
220.534 52.688 L
221.619 52.675 L
222.704 52.663 L
223.789 52.652 L
224.874 52.641 L
225.959 52.63 L
227.044 52.62 L
228.129 52.611 L
229.214 52.602 L
230.299 52.594 L
231.384 52.586 L
232.469 52.578 L
233.554 52.571 L
234.639 52.564 L
235.724 52.558 L
236.809 52.551 L
237.894 52.545 L
238.979 52.54 L
240.064 52.535 L
241.149 52.53 L
242.234 52.525 L
243.319 52.521 L
244.404 52.516 L
245.489 52.512 L
246.574 52.508 L
247.659 52.505 L
248.744 52.501 L
249.829 52.498 L
250.914 52.495 L
251.999 52.492 L
253.084 52.489 L
254.169 52.487 L
255.254 52.484 L
256.339 52.482 L
257.424 52.479 L
258.509 52.477 L
259.594 52.475 L
260.679 52.473 L
261.764 52.471 L
262.849 52.47 L
263.934 52.468 L
265.019 52.466 L
266.104 52.465 L
267.189 52.464 L
268.274 52.462 L
269.359 52.461 L
270.444 52.46 L
271.529 52.459 L
272.614 52.458 L
273.699 52.457 L
274.784 52.456 L
275.869 52.455 L
276.954 52.454 L
278.039 52.453 L
279.124 52.452 L
280.209 52.451 L
281.294 52.451 L
282.379 52.45 L
283.464 52.449 L
284.549 52.449 L
285.634 52.448 L
286.719 52.448 L
287.804 52.447 L
288.889 52.447 L
289.974 52.446 L
291.059 52.446 L
292.144 52.445 L
293.229 52.445 L
294.314 52.445 L
295.399 52.444 L
296.484 52.444 L
297.569 52.443 L
298.654 52.443 L
299.739 52.443 L
300.824 52.443 L
301.909 52.442 L
302.994 52.442 L
304.079 52.442 L
305.164 52.442 L
306.249 52.441 L
307.334 52.441 L
308.419 52.441 L
309.504 52.441 L
310.589 52.441 L
311.674 52.441 L
312.759 52.44 L
313.844 52.44 L
314.929 52.44 L
316.014 52.44 L
317.099 52.44 L
318.184 52.44 L
319.269 52.44 L
320.354 52.439 L
321.439 52.439 L
322.524 52.439 L
323.609 52.439 L
324.694 52.439 L
325.779 52.439 L
326.864 52.439 L
327.949 52.439 L
329.034 52.439 L
330.119 52.439 L
331.204 52.439 L
332.289 52.439 L
333.374 52.439 L
334.459 52.438 L
335.544 52.438 L
336.629 52.438 L
337.714 52.438 L
338.799 52.438 L
339.884 52.438 L
340.969 52.438 L
342.054 52.438 L
343.139 52.438 L
344.224 52.438 L
345.309 52.438 L
346.394 52.438 L
347.479 52.438 L
348.564 52.438 L
349.649 52.438 L
350.734 52.438 L
351.819 52.438 L
352.904 52.438 L
353.989 52.438 L
355.074 52.438 L
356.159 52.438 L
357.244 52.438 L
358.329 52.438 L
359.414 52.438 L
360.499 52.438 L
361.584 52.438 L
362.669 52.438 L
363.754 52.438 L
364.839 52.438 L
365.924 52.438 L
367.009 52.438 L
368.094 52.438 L
369.179 52.438 L
370.264 52.438 L
371.349 52.438 L
372.434 52.438 L
373.519 52.438 L
374.604 52.438 L
375.689 52.438 L
376.774 52.438 L
377.859 52.438 L
378.944 52.438 L
380.029 52.438 L
381.114 52.438 L
382.199 52.438 L
383.284 52.438 L
384.369 52.438 L
385.454 52.438 L
386.539 52.438 L
387.624 52.438 L
388.709 52.438 L
389.794 52.438 L
390.879 52.438 L
391.964 52.438 L
393.049 52.438 L
394.134 52.438 L
395.219 52.438 L
396.304 52.438 L
397.389 52.438 L
398.474 52.438 L
399.559 52.438 L
400.644 52.438 L
401.729 52.438 L
402.814 52.438 L
403.899 52.438 L
404.984 52.438 L
406.069 52.438 L
407.154 52.438 L
408.239 52.438 L
409.324 52.438 L
410.409 52.438 L
411.494 52.438 L
412.579 52.438 L
413.664 52.438 L
414.749 52.438 L
415.834 52.438 L
416.919 52.438 L
418.004 52.438 L
419.089 52.438 L
420.174 52.438 L
421.259 52.438 L
422.344 52.438 L
423.429 52.438 L
424.514 52.438 L
425.599 52.438 L
426.684 52.438 L
427.769 52.438 L
428.854 52.438 L
429.939 52.438 L
431.024 52.438 L
432.109 52.438 L
433.194 52.438 L
434.279 52.438 L
435.364 52.438 L
436.449 52.438 L
437.534 52.438 L
438.619 52.438 L
439.704 52.438 L
440.789 52.438 L
441.874 52.438 L
442.959 52.438 L
444.044 52.438 L
445.129 52.438 L
446.214 52.438 L
447.299 52.438 L
448.384 52.438 L
449.469 52.438 L
450.554 52.438 L
451.639 52.438 L
452.724 52.438 L
453.809 52.438 L
454.894 52.438 L
455.979 52.438 L
457.064 52.438 L
458.149 52.438 L
459.234 52.438 L
460.319 52.438 L
461.404 52.438 L
462.489 52.438 L
463.574 52.438 L
464.659 52.438 L
465.744 52.438 L
466.829 52.438 L
467.914 52.438 L
468.999 52.438 L
470.084 52.438 L
471.169 52.438 L
472.254 52.438 L
473.339 52.438 L
474.424 52.438 L
475.509 52.438 L
476.594 52.438 L
477.679 52.438 L
478.764 52.438 L
479.849 52.438 L
480.934 52.438 L
482.019 52.438 L
483.104 52.438 L
484.189 52.438 L
485.274 52.438 L
486.359 52.438 L
487.444 52.438 L
488.529 52.438 L
489.614 52.438 L
490.699 52.438 L
491.784 52.438 L
492.869 52.438 L
493.954 52.438 L
495.039 52.438 L
496.124 52.438 L
497.209 52.438 L
498.294 52.438 L
499.379 52.438 L
500.464 52.438 L
501.549 52.438 L
502.634 52.438 L
503.725 52.438 L
504.817 52.438 L
505.908 52.438 L
507 52.438 L
S
GR
GS
[0.75 0 0 0.75 0 0] CT
1 GC
N
494 94 M
494 44 L
416 44 L
416 94 L
cp
f
GR
GS
[0.75 0 0 0.75 347.25 40.125] CT
/Helvetica 12 F
GS
[1 0 0 1 0 0] CT
0 4.5 moveto 
1 -1 scale
(H=1) t 
GR
GR
GS
[0.75 0 0 0.75 0 0] CT
0 0 1 RC
1 LJ
2.667 LW
N
420 53.5 M
460 53.5 L
S
GR
GS
[0.75 0 0 0.75 347.25 51.75] CT
/Helvetica 12 F
GS
[1 0 0 1 0 0] CT
0 4.5 moveto 
1 -1 scale
(H=2) t 
GR
GR
GS
[0.75 0 0 0.75 0 0] CT
0 0 1 RC
[8 8] 0 setdash
2 LJ
2.667 LW
N
420 69 M
460 69 L
S
GR
GS
[0.75 0 0 0.75 347.25 63.375] CT
/Helvetica 12 F
GS
[1 0 0 1 0 0] CT
0 4.5 moveto 
1 -1 scale
(H=3) t 
GR
GR
GS
[0.75 0 0 0.75 0 0] CT
0 0 1 RC
[8 2 4 2] 0 setdash
2 LJ
2.667 LW
N
420 84.5 M
460 84.5 L
S
GR
GS
[0.75 0 0 0.75 0 0] CT
0.149 GC
10.0 ML
0.667 LW
N
416 94 M
416 44 L
494 44 L
494 94 L
cp
S
GR
%%Trailer
%%Pages: 1
%%EOF
